(1)
(TRAVEL EGUITAR VERTICAL)
G0 G90 G94 G17
G21

G0 Z5
g0 x0 y0


G1 Z-2 F600
g1 x200 F1200

g1 x200 y2.5
g1 x0 y2.5

g1 x0 y5
g1 x200 y5

g1 x200 y7.5
g1 x0 y7.5

g1 x0 y10
g1 x200 y10


g0 z5
g0 x0y0


G1 Z-4 F600
g1 x200 F1200

g1 x200 y2.5
g1 x0 y2.5

g1 x0 y5
g1 x200 y5

g1 x200 y7.5
g1 x0 y7.5

g1 x0 y10
g1 x200 y10


G0 Z5

M9
M30
