(1)
(TRAVEL EGUITAR VERTICAL)
(T1  D=8. CR=0. - ZMIN=-55. - FLAT END MILL)
G0 G90 G94 G17
G21

(2D POCKET9)
M5
M9
T1
M3 S14000
G54
M9
Z3.
G0 X23.92 Y8.91

G1 Z-4. F600.
G2 X26.08 Y11.79 I1.08 J1.44 F1000.
X23.92 Y8.91 I-1.08 J-1.44
G1 Z-8. F600.
G2 X26.08 Y11.79 I1.08 J1.44 F1000.
X23.92 Y8.91 I-1.08 J-1.44

G1 Z-12. F600.
G2 X26.08 Y11.79 I1.08 J1.44 F1000.
X23.92 Y8.91 I-1.08 J-1.44
G1 Z-16. F600.
G2 X26.08 Y11.79 I1.08 J1.44 F1000.
X23.92 Y8.91 I-1.08 J-1.44

G1 Z-20. F600.
G2 X26.08 Y11.79 I1.08 J1.44 F1000.
X23.92 Y8.91 I-1.08 J-1.44
G1 Z-24. F600.
G2 X26.08 Y11.79 I1.08 J1.44 F1000.
X23.92 Y8.91 I-1.08 J-1.44

G1 Z-28. F600.
G2 X26.08 Y11.79 I1.08 J1.44 F1000.
X23.92 Y8.91 I-1.08 J-1.44
G1 Z-32. F600.
G2 X26.08 Y11.79 I1.08 J1.44 F1000.
X23.92 Y8.91 I-1.08 J-1.44

G1 Z-36. F600.
G2 X26.08 Y11.79 I1.08 J1.44 F1000.
X23.92 Y8.91 I-1.08 J-1.44
G1 Z-40. F600.
G2 X26.08 Y11.79 I1.08 J1.44 F1000.
X23.92 Y8.91 I-1.08 J-1.44

G1 Z-44. F600.
G2 X26.08 Y11.79 I1.08 J1.44 F1000.
X23.92 Y8.91 I-1.08 J-1.44
G1 Z-48. F600.
G2 X26.08 Y11.79 I1.08 J1.44 F1000.
X23.92 Y8.91 I-1.08 J-1.44

G1 Z-52. F600.
G2 X26.08 Y11.79 I1.08 J1.44 F1000.
X23.92 Y8.91 I-1.08 J-1.44
G1 Z-55. F600.
G2 X26.08 Y11.79 I1.08 J1.44 F1000.
X23.92 Y8.91 I-1.08 J-1.44

G1 X24.832 Y10.126 Z-54.848 F800.
G0 Z3.

M9
M30
