(1)
(TRAVEL EGUITAR TOP)
(T3  D=3. CR=0. - ZMIN=0. - FLAT END MILL)
G0 G90 G94 G17
G21

(BRIDGE POCKET 1)
M5
M9
T3
M3 S16000
G54
M9
Z25.7
G0 X38.976 Y65.5
G1 Z23.7 F1000.
Z18.7 F500.
Y114.705 F1000.
G2 X39.295 Y115.024 I0.319 J0.
G1 X39.705
G2 X40.024 Y114.705 I0. J-0.319
G1 Y65.295
G2 X39.705 Y64.976 I-0.319 J0.
G1 X39.291
G2 X38.976 Y65.291 I0. J0.315
G1 Y65.5
G3 X38.439 Y66.306 I-0.873 J0.
G2 X37.902 Y67.111 I0.336 J0.806
G1 Y115.779
G2 X38.221 Y116.098 I0.319 J0.
G1 X40.779
G2 X41.098 Y115.779 I0. J-0.319
G1 Y64.221
G2 X40.779 Y63.902 I-0.319 J0.
G1 X38.217
G2 X37.902 Y64.217 I0. J0.315
G1 Y67.111
G3 X36.701 Y68.913 I-1.951 J0.
G2 X35.5 Y70.714 I0.751 J1.801
G1 Y118.5
X43.5
Y61.5
X35.5
Y70.714
G2 X35.537 Y70.725 I0.02 J0.
G1 X38.939 Y65.489
G3 X38.976 Y65.5 I0.017 J0.011
G1 Z16.7 F500.
Y114.705 F1000.
G2 X39.295 Y115.024 I0.319 J0.
G1 X39.705
G2 X40.024 Y114.705 I0. J-0.319
G1 Y65.295
G2 X39.705 Y64.976 I-0.319 J0.
G1 X39.291
G2 X38.976 Y65.291 I0. J0.315
G1 Y65.5
G3 X38.439 Y66.306 I-0.873 J0.
G2 X37.902 Y67.111 I0.336 J0.806
G1 Y115.779
G2 X38.221 Y116.098 I0.319 J0.
G1 X40.779
G2 X41.098 Y115.779 I0. J-0.319
G1 Y64.221
G2 X40.779 Y63.902 I-0.319 J0.
G1 X38.217
G2 X37.902 Y64.217 I0. J0.315
G1 Y67.111
G3 X36.701 Y68.913 I-1.951 J0.
G2 X35.5 Y70.714 I0.751 J1.801
G1 Y118.5
X43.5
Y61.5
X35.5
Y70.714
X36.07 Z16.757
G0 Z25.7

(2D POCKET8)
M9
G0 X238.148 Y146.691
G1 Z25.7 F1000.
Z22.7
Z18.7
Y146.679
Y145.797
G3 X238.469 Y145.474 I0.323 J0.
G1 X238.995 Y145.468
G2 X239.012 Y145.46 I0. J-0.02
G1 X240.373 Y143.556
G2 X240.357 Y143.525 I-0.016 J-0.012
G1 X236.538 Y143.563
G2 X236.218 Y143.886 I0.003 J0.323
X236.245 Y149.396 I562.556 J0.
G3 X236.242 Y149.408 I-0.02 J0.
G1 X233.905 Y152.803
G3 X233.868 Y152.791 I-0.016 J-0.011
G1 X233.827 Y141.518
G3 X234.147 Y141.195 I0.323 J0.
G1 X242.043 Y141.116
G2 X242.059 Y141.108 I0. J-0.02
G1 X243.746 Y138.74
G2 X243.73 Y138.708 I-0.016 J-0.012
G1 X231.755 Y138.827
G2 X231.435 Y139.15 I0.003 J0.323
G1 X231.48 Y153.719
G3 X231.321 Y156.429 I-23.073 J0.
G1 X231.317 Y156.438
X227.567 Y161.858
G3 X227.532 Y161.841 I-0.016 J-0.011
G1 X228.132 Y159.938
G2 X229.089 Y153.719 I-19.725 J-6.219
G1 X229.044 Y136.783
G3 X229.364 Y136.459 I0.323 J0.
G1 X245.416 Y136.3
G2 X245.432 Y136.291 I0. J-0.02
G1 X247.119 Y133.923
G2 X247.102 Y133.891 I-0.016 J-0.012
G1 X226.972 Y134.092
G2 X226.652 Y134.415 I0.003 J0.323
G1 X226.697 Y153.719
G3 X226.05 Y158.364 I-16.994 J0.
X224.704 Y162.857 I-158.039 J-44.91
X222.242 Y167.848 I-17.444 J-5.5
G1 X220.454 Y170.402
G3 X220.444 Y170.41 I-0.016 J-0.011
G1 X216.796 Y171.52
G3 X216.773 Y171.489 I-0.006 J-0.019
G1 X220.284 Y166.476
G2 X222.423 Y162.138 I-13.024 J-9.119
X223.687 Y158. I-228.172 J-71.939
X224.306 Y153.719 I-14.488 J-4.281
G1 X224.261 Y132.047
G3 X224.581 Y131.724 I0.323 J0.
G1 X248.789 Y131.483
G2 X248.804 Y131.475 I0. J-0.02
G1 X250.553 Y129.106
G2 X250.537 Y129.074 I-0.016 J-0.012
G1 X222.189 Y129.356
G2 X221.869 Y129.679 I0.003 J0.323
G1 X221.914 Y153.719
G3 X221.323 Y157.637 I-13.268 J0.
X220.142 Y161.419 I-664.824 J-205.453
X218.325 Y165.105 I-12.882 J-4.062
G1 X213.854 Y171.49
G3 X213.837 Y171.498 I-0.016 J-0.011
G1 X210.951 Y171.521
G3 X210.935 Y171.489 I0. J-0.02
G1 X216.366 Y163.733
G2 X217.862 Y160.699 I-9.106 J-6.376
G3 X218.959 Y157.273 I373.02 J117.607
G2 X219.523 Y153.719 I-10.92 J-3.554
G1 X219.478 Y127.311
G3 X219.798 Y126.988 I0.323 J0.
G1 X252.577 Y126.662
G2 X252.591 Y126.657 I0. J-0.02
G1 X255.125 Y124.28
G2 X255.111 Y124.245 I-0.014 J-0.015
G1 X217.407 Y124.62
G2 X217.086 Y124.944 I0.003 J0.323
G1 X217.131 Y153.719
G3 X216.596 Y156.909 I-9.763 J0.
G2 X215.581 Y159.98 I111.407 J38.516
G3 X214.407 Y162.361 I-8.321 J-2.623
G1 X208.015 Y171.489
G3 X207.999 Y171.498 I-0.016 J-0.011
G1 X205.111 Y171.521
G3 X205.095 Y171.49 I0. J-0.02
G1 X212.448 Y160.99
G2 X213.3 Y159.261 I-5.188 J-3.633
G1 X214.447 Y155.623
G2 X214.74 Y153.719 I-6.04 J-1.904
G1 X214.695 Y122.576
G3 X215.015 Y122.253 I0.323 J0.
G1 X258.375 Y121.821
X258.384 Y121.819
X262.955 Y119.422
G2 X262.945 Y119.384 I-0.009 J-0.018
G1 X212.624 Y119.885
G2 X212.303 Y120.208 I0.003 J0.323
G1 X212.348 Y153.719
G3 X212.166 Y154.904 I-3.941 J0.
G1 X211.019 Y158.542
G3 X210.489 Y159.618 I-3.759 J-1.185
G1 X202.783 Y170.623
G3 X201.952 Y171.49 I-3.229 J-2.261
X201.94 Y171.494 I-0.012 J-0.016
G1 X196.803 Y171.527
G3 X196.794 Y171.49 I0. J-0.02
G1 X197.1 Y171.331
X200.247 Y169.693
G2 X200.783 Y169.222 I-0.693 J-1.331
G1 X208.489 Y158.217
G2 X208.691 Y157.808 I-1.229 J-0.86
G1 X209.838 Y154.17
G2 X209.907 Y153.719 I-1.431 J-0.451
G1 Y117.515
X274.254 Y116.875
G3 X274.267 Y116.91 I0. J0.02
G1 X239.02 Y145.464
G3 X239.007 Y145.468 I-0.013 J-0.016
G1 Z16.7
X238.995
X238.469 Y145.474
G2 X238.148 Y145.797 I0.003 J0.323
G1 Y146.679
G3 X238.145 Y146.69 I-0.02 J0.
G1 X236.282 Y149.407
G3 X236.245 Y149.396 I-0.016 J-0.011
X236.218 Y143.886 I562.529 J-5.51
X236.538 Y143.563 I0.323 J0.
G1 X240.357 Y143.525
G2 X240.373 Y143.516 I0. J-0.02
G1 X242.06 Y141.148
G2 X242.043 Y141.116 I-0.016 J-0.012
G1 X234.147 Y141.195
G2 X233.827 Y141.518 I0.003 J0.323
G1 X233.868 Y152.791
G3 X233.865 Y152.803 I-0.02 J0.
G1 X231.357 Y156.443
G3 X231.321 Y156.429 I-0.016 J-0.011
G2 X231.48 Y153.719 I-22.914 J-2.71
G1 X231.435 Y139.15
G3 X231.755 Y138.827 I0.323 J0.
G1 X243.73 Y138.708
G2 X243.746 Y138.7 I0. J-0.02
G1 X245.432 Y136.331
G2 X245.416 Y136.3 I-0.016 J-0.012
G1 X229.364 Y136.459
G2 X229.044 Y136.783 I0.003 J0.323
G1 X229.089 Y153.719
G3 X228.132 Y159.938 I-20.682 J0.
G1 X227.532 Y161.841
X227.528 Y161.848
X220.486 Y170.426
G3 X220.454 Y170.402 I-0.015 J-0.013
G1 X222.242 Y167.848
G2 X224.704 Y162.857 I-14.982 J-10.491
X226.05 Y158.364 I-156.693 J-49.403
X226.697 Y153.719 I-16.346 J-4.645
G1 X226.652 Y134.415
G3 X226.972 Y134.092 I0.323 J0.
G1 X247.102 Y133.891
G2 X247.118 Y133.883 I0. J-0.02
G1 X248.805 Y131.514
G2 X248.789 Y131.483 I-0.016 J-0.012
G1 X224.581 Y131.724
G2 X224.261 Y132.047 I0.003 J0.323
G1 X224.306 Y153.719
G3 X223.687 Y158. I-15.107 J0.
X222.423 Y162.138 I-229.435 J-67.801
X220.284 Y166.476 I-15.163 J-4.781
G1 X216.773 Y171.489
G3 X216.757 Y171.498 I-0.016 J-0.011
G1 X213.87 Y171.521
G3 X213.854 Y171.49 I0. J-0.02
G1 X218.325 Y165.105
G2 X220.142 Y161.419 I-11.065 J-7.748
X221.323 Y157.637 I-663.643 J-209.235
X221.914 Y153.719 I-12.677 J-3.918
G1 X221.869 Y129.679
G3 X222.189 Y129.356 I0.323 J0.
G1 X250.537 Y129.074
G2 X250.552 Y129.067 I0. J-0.02
G1 X252.593 Y126.695
G2 X252.577 Y126.662 I-0.015 J-0.013
G1 X219.798 Y126.988
G2 X219.478 Y127.311 I0.003 J0.323
G1 X219.523 Y153.719
G3 X218.959 Y157.273 I-11.484 J0.
G2 X217.862 Y160.699 I371.923 J121.034
G3 X216.366 Y163.733 I-10.602 J-3.342
G1 X210.935 Y171.489
G3 X210.918 Y171.498 I-0.016 J-0.011
G1 X208.031 Y171.521
G3 X208.015 Y171.489 I0. J-0.02
G1 X214.407 Y162.361
G2 X215.581 Y159.98 I-7.147 J-5.004
G3 X216.596 Y156.909 I112.422 J35.445
G2 X217.131 Y153.719 I-9.227 J-3.19
G1 X217.086 Y124.944
G3 X217.407 Y124.62 I0.323 J0.
G1 X255.111 Y124.245
G2 X255.122 Y124.241 I0. J-0.02
G1 X258.387 Y121.857
G2 X258.375 Y121.821 I-0.012 J-0.016
G1 X215.015 Y122.253
G2 X214.695 Y122.576 I0.003 J0.323
G1 X214.74 Y153.719
G3 X214.447 Y155.623 I-6.333 J0.
G1 X213.3 Y159.261
G3 X212.448 Y160.99 I-6.04 J-1.904
G1 X205.095 Y171.49
G3 X205.079 Y171.498 I-0.016 J-0.011
G1 X201.965 Y171.526
G3 X201.952 Y171.49 I0. J-0.02
G2 X202.783 Y170.623 I-2.398 J-3.128
G1 X210.489 Y159.618
G2 X211.019 Y158.542 I-3.229 J-2.261
G1 X212.166 Y154.904
G2 X212.348 Y153.719 I-3.759 J-1.185
G1 X212.303 Y120.208
G3 X212.624 Y119.885 I0.323 J0.
G1 X262.945 Y119.384
X274.259 Y116.914
G2 X274.254 Y116.875 I-0.004 J-0.02
G1 X209.907 Y117.515
Y153.719
G3 X209.838 Y154.17 I-1.5 J0.
G1 X208.691 Y157.808
G3 X208.489 Y158.217 I-1.431 J-0.451
G1 X200.783 Y169.222
G3 X200.247 Y169.693 I-1.229 J-0.86
G1 X197.1 Y171.331
X196.794 Y171.49
X197.057 Y171.995 Z16.757
G0 Z25.7
X238.148 Y33.31
G1 Z22.7 F1000.
Z18.7
Y33.322
Y34.203
G2 X238.468 Y34.526 I0.323 J0.
G1 X238.995 Y34.532
G3 X239.011 Y34.54 I0. J0.02
G1 X240.372 Y36.444
G3 X240.356 Y36.475 I-0.016 J0.012
G1 X236.538 Y36.437
G3 X236.218 Y36.114 I0.003 J-0.323
X236.245 Y30.604 I562.464 J0.
G2 X236.242 Y30.593 I-0.02 J0.
G1 X233.905 Y27.198
G2 X233.868 Y27.21 I-0.016 J0.011
G1 X233.827 Y38.482
G2 X234.147 Y38.805 I0.323 J0.
G1 X242.043 Y38.884
G3 X242.059 Y38.892 I0. J0.02
G1 X243.746 Y41.26
G3 X243.729 Y41.292 I-0.016 J0.012
G1 X231.755 Y41.173
G3 X231.435 Y40.85 I0.003 J-0.323
G1 X231.48 Y26.281
G2 X231.321 Y23.571 I-23.073 J0.
G1 X231.317 Y23.562
X227.567 Y18.142
G2 X227.532 Y18.159 I-0.016 J0.011
G1 X228.132 Y20.063
G3 X229.089 Y26.281 I-19.725 J6.218
G1 X229.044 Y43.217
G2 X229.364 Y43.541 I0.323 J0.
G1 X245.416 Y43.7
G3 X245.432 Y43.709 I0. J0.02
G1 X247.118 Y46.077
G3 X247.101 Y46.109 I-0.016 J0.012
G1 X226.972 Y45.909
G3 X226.652 Y45.585 I0.003 J-0.323
G1 X226.697 Y26.281
G2 X225.851 Y20.782 I-18.29 J0.
X224.377 Y16.329 I-156.623 J49.377
X222.242 Y12.152 I-16.054 J5.57
G1 X220.454 Y9.598
G2 X220.444 Y9.59 I-0.016 J0.011
G1 X216.796 Y8.48
G2 X216.773 Y8.511 I-0.006 J0.019
G1 X220.283 Y13.524
G3 X222.232 Y17.387 I-12.375 J8.665
X223.57 Y21.501 I-226.676 J75.998
X224.306 Y26.281 I-15.163 J4.78
G1 X224.261 Y47.953
G2 X224.581 Y48.276 I0.323 J0.
G1 X248.788 Y48.517
G3 X248.804 Y48.525 I0. J0.02
G1 X250.553 Y50.894
G3 X250.537 Y50.926 I-0.016 J0.012
G1 X222.189 Y50.644
G3 X221.869 Y50.321 I0.003 J-0.323
G1 X221.914 Y26.281
G2 X221.289 Y22.22 I-13.507 J0.
X220.087 Y18.444 I-662.259 J208.782
X218.325 Y14.895 I-12.631 J4.061
G1 X213.854 Y8.511
G2 X213.837 Y8.502 I-0.016 J0.011
G1 X210.95 Y8.479
G2 X210.934 Y8.51 I0. J0.02
G1 X216.366 Y16.267
G3 X217.942 Y19.502 I-9.407 J6.587
G2 X219.009 Y22.939 I374.525 J-114.298
G3 X219.523 Y26.281 I-10.602 J3.342
G1 X219.478 Y52.689
G2 X219.798 Y53.012 I0.323 J0.
G1 X252.578 Y53.338
G3 X252.591 Y53.344 I0. J0.02
G1 X255.125 Y55.72
G3 X255.111 Y55.755 I-0.014 J0.015
G1 X217.407 Y55.38
G3 X217.086 Y55.056 I0.003 J-0.323
G1 X217.131 Y26.281
G2 X216.728 Y23.658 I-8.724 J0.
G3 X215.797 Y20.56 I112.459 J-35.453
G2 X214.407 Y17.639 I-9.388 J2.679
G1 X208.015 Y8.511
G2 X207.999 Y8.502 I-0.016 J0.011
G1 X205.111 Y8.479
G2 X205.095 Y8.51 I0. J0.02
G1 X212.448 Y19.011
G3 X213.3 Y20.739 I-5.188 J3.633
G1 X214.447 Y24.377
G3 X214.74 Y26.281 I-6.04 J1.904
G1 X214.695 Y57.424
G2 X215.015 Y57.748 I0.323 J0.
G1 X258.376 Y58.179
X258.385 Y58.181
X262.956 Y60.578
G3 X262.946 Y60.616 I-0.009 J0.018
G1 X212.624 Y60.115
G3 X212.303 Y59.792 I0.003 J-0.323
G1 X212.348 Y26.281
G2 X212.166 Y25.096 I-3.941 J0.
G1 X211.019 Y21.458
G2 X210.489 Y20.382 I-3.759 J1.185
G1 X202.783 Y9.378
G2 X201.952 Y8.51 I-3.229 J2.261
X201.94 Y8.506 I-0.012 J0.016
G1 X196.803 Y8.473
G2 X196.794 Y8.51 I0. J0.02
G1 X197.1 Y8.669
X200.247 Y10.308
G3 X200.783 Y10.778 I-0.693 J1.331
G1 X208.489 Y21.783
G3 X208.691 Y22.192 I-1.229 J0.86
G1 X209.838 Y25.83
G3 X209.907 Y26.281 I-1.431 J0.451
G1 Y62.485
X274.248 Y63.125
G2 X274.26 Y63.09 I0. J-0.02
G1 X239.019 Y34.536
G2 X239.007 Y34.532 I-0.013 J0.016
G1 Z16.7
X238.995
X238.468 Y34.526
G3 X238.148 Y34.203 I0.003 J-0.323
G1 Y33.322
G2 X238.145 Y33.311 I-0.02 J0.
G1 X236.282 Y30.593
G2 X236.245 Y30.604 I-0.016 J0.011
X236.218 Y36.114 I562.437 J5.51
X236.538 Y36.437 I0.323 J0.
G1 X240.356 Y36.475
G3 X240.372 Y36.484 I0. J0.02
G1 X242.059 Y38.852
G3 X242.043 Y38.884 I-0.016 J0.012
G1 X234.147 Y38.805
G3 X233.827 Y38.482 I0.003 J-0.323
G1 X233.868 Y27.21
G2 X233.865 Y27.198 I-0.02 J0.
G1 X231.357 Y23.557
G2 X231.321 Y23.571 I-0.016 J0.011
G3 X231.48 Y26.281 I-22.914 J2.711
G1 X231.435 Y40.85
G2 X231.755 Y41.173 I0.323 J0.
G1 X243.729 Y41.292
G3 X243.745 Y41.3 I0. J0.02
G1 X245.432 Y43.669
G3 X245.416 Y43.7 I-0.016 J0.012
G1 X229.364 Y43.541
G3 X229.044 Y43.217 I0.003 J-0.323
G1 X229.089 Y26.281
G2 X228.132 Y20.063 I-20.682 J0.
G1 X227.532 Y18.159
X227.528 Y18.152
X220.486 Y9.574
G2 X220.454 Y9.598 I-0.015 J0.013
G1 X222.242 Y12.152
G3 X224.377 Y16.329 I-13.92 J9.747
X225.851 Y20.782 I-155.149 J53.83
X226.697 Y26.281 I-17.444 J5.499
G1 X226.652 Y45.585
G2 X226.972 Y45.909 I0.323 J0.
G1 X247.101 Y46.109
G3 X247.117 Y46.117 I0. J0.02
G1 X248.805 Y48.486
G3 X248.788 Y48.517 I-0.016 J0.012
G1 X224.581 Y48.276
G3 X224.261 Y47.953 I0.003 J-0.323
G1 X224.306 Y26.281
G2 X223.57 Y21.501 I-15.899 J0.
X222.232 Y17.387 I-228.015 J71.883
X220.283 Y13.524 I-14.323 J4.802
G1 X216.773 Y8.511
G2 X216.757 Y8.502 I-0.016 J0.011
G1 X213.87 Y8.479
G2 X213.854 Y8.511 I0. J0.02
G1 X218.325 Y14.895
G3 X220.087 Y18.444 I-10.868 J7.61
X221.289 Y22.22 I-661.057 J212.558
X221.914 Y26.281 I-12.882 J4.061
G1 X221.869 Y50.321
G2 X222.189 Y50.644 I0.323 J0.
G1 X250.537 Y50.926
G3 X250.552 Y50.933 I0. J0.02
G1 X252.593 Y53.305
G3 X252.578 Y53.338 I-0.015 J0.013
G1 X219.798 Y53.012
G3 X219.478 Y52.689 I0.003 J-0.323
G1 X219.523 Y26.281
G2 X219.009 Y22.939 I-11.116 J0.
G3 X217.942 Y19.502 I373.458 J-117.735
G2 X216.366 Y16.267 I-10.983 J3.352
G1 X210.934 Y8.51
G2 X210.918 Y8.502 I-0.016 J0.011
G1 X208.031 Y8.479
G2 X208.015 Y8.511 I0. J0.02
G1 X214.407 Y17.639
G3 X215.797 Y20.56 I-7.997 J5.6
G2 X216.728 Y23.658 I113.389 J-32.355
G3 X217.131 Y26.281 I-8.321 J2.623
G1 X217.086 Y55.056
G2 X217.407 Y55.38 I0.323 J0.
G1 X255.111 Y55.755
G3 X255.123 Y55.759 I0. J0.02
G1 X258.388 Y58.143
G3 X258.376 Y58.179 I-0.012 J0.016
G1 X215.015 Y57.748
G3 X214.695 Y57.424 I0.003 J-0.323
G1 X214.74 Y26.281
G2 X214.447 Y24.377 I-6.333 J0.
G1 X213.3 Y20.739
G2 X212.448 Y19.011 I-6.04 J1.904
G1 X205.095 Y8.51
G2 X205.079 Y8.502 I-0.016 J0.011
G1 X201.965 Y8.474
G2 X201.952 Y8.51 I0. J0.02
G3 X202.783 Y9.378 I-2.398 J3.128
G1 X210.489 Y20.382
G3 X211.019 Y21.458 I-3.229 J2.261
G1 X212.166 Y25.096
G3 X212.348 Y26.281 I-3.759 J1.185
G1 X212.303 Y59.792
G2 X212.624 Y60.115 I0.323 J0.
G1 X262.946 Y60.616
X274.252 Y63.086
G3 X274.248 Y63.125 I-0.004 J0.02
G1 X209.907 Y62.485
Y26.281
G2 X209.838 Y25.83 I-1.5 J0.
G1 X208.691 Y22.192
G2 X208.489 Y21.783 I-1.431 J0.451
G1 X200.783 Y10.778
G2 X200.247 Y10.308 I-1.229 J0.86
G1 X197.1 Y8.669
X196.794 Y8.51
X197.057 Y8.005 Z16.757
G0 Z25.7

(2D POCKET4)
M9
G0 X667.761 Y67.04
G1 Z25.7 F1000.
Z22.7
Z18.7
Y67.052
X667.76 Y68.5
X667.783 Y112.948
G2 X667.803 Y112.968 I0.02 J0.
G1 X669.13 Y112.955
G2 X669.15 Y112.935 I0. J-0.02
G1 Y67.065
X668.58 Z18.757
G0 Z25.7
X666.495 Y112.973
G1 Z22.7 F500.
Z18.7 F1000.
Y112.961
Y67.039
G2 X666.475 Y67.019 I-0.02 J0.
G1 X665.17 Y67.005
G2 X665.15 Y67.025 I0. J0.02
G1 Y112.974
X665.72 Z18.757
G0 Z25.7

(POCKET7)
M9
G0 X704.25 Y105.655
Z25.7
Z23.7
G1 Z19.7 F500.
Y105.544 F1000.
X681.456 Y106.747
Y106.958
X704.25 Y105.754
Y105.655
Z18.7 F500.
Y105.544 F1000.
X684.627 Y106.58
Y106.79
X704.25 Y105.754
Y105.655
Z17.7 F500.
Y105.544 F1000.
X687.798 Y106.413
Y106.623
X704.25 Y105.754
Y105.655
G2 X704.227 Y105.638 I-0.017 J0.
G1 X704.146 Y105.662
X704.061
G2 X704.044 Y105.684 I0. J0.017
G1 Z17. F500.
X704.047 Y105.692 Z16.95
X704.05 Y105.7 Z16.899
G2 X704.081 Y105.738 Z16.81 I0.095 J-0.046
X704.142 Y105.759 Z16.751 I0.063 J-0.084
X704.215 Y105.732 Z16.713 I0.002 J-0.105
X704.25 Y105.655 Z16.7 I-0.071 J-0.078
G1 Y105.544 F1000.
X690.969 Y106.245
Y106.455
X704.25 Y105.754
Y105.655
Z15.7 F500.
Y105.544 F1000.
X694.14 Y106.078
Y106.288
X704.25 Y105.754
Y105.655
Z14.7 F500.
Y105.544 F1000.
X697.311 Y105.91
Y106.12
X704.25 Y105.754
Y105.655
Z13.7 F500.
Y105.544 F1000.
X700.482 Y105.743
Y105.953
X704.25 Y105.754
Y105.655
Z12.7 F500.
Y105.544 F1000.
X703.653 Y105.575
Y105.786
X704.25 Y105.754
Y105.655
Z13.
G0 Z25.7

(MORPHED SPIRAL4)
M9
G0 X678.075 Y107.041
Z25.7
Z23.7
G1 Z20.986 F1000.
X678.082 Y107.04 Z20.923
X678.102 Y107.039 Z20.863
X678.133 Y107.036 Z20.809
X678.176 Y107.033 Z20.762
X678.227 Y107.03 Z20.725
X678.285 Y107.026 Z20.7
X678.584 Y107.004 Z20.606
X704.131 Y105.638 Z12.549
X704.144 Y105.671 Z12.545
X678.31 Y107.053 Z20.692
X678.298 Y107.054 Z20.696
X678.277 Y106.988 Z20.7
X691.299 Y106.281 Z16.596
X704.156 Y105.584 Z12.541
X704.216 Y105.656 Z12.522
X704.165 Y105.722 Z12.538
X678.285 Y107.125 Z20.7
X678.185 Y107.13
Y106.92
X679.956 Y106.827 Z20.173
X704.25 Y105.544 Z12.512
Y105.754
X678.241 Y107.128 Z20.7
X678.185 Y107.13
X678.119 Y107.134 Z20.708
X678.055 Y107.137 Z20.73
X677.998 Y107.14 Z20.765
X677.951 Y107.143 Z20.813
X677.915 Y107.145 Z20.87
X677.893 Y107.146 Z20.933
X677.886 Z21.
G0 Z25.7

(POCKET16)
M9
G0 X704.147 Y99.707
Z25.7
Z23.7
G1 Z19.7 F500.
X704.25 Y99.704 F1000.
X704.249 Y99.494
X681.456 Y100.096
Y100.306
X704.147 Y99.707
Z18.7 F500.
X704.25 Y99.704 F1000.
X704.249 Y99.494
X684.627 Y100.012
Y100.222
X704.147 Y99.707
Z17.7 F500.
X704.25 Y99.704 F1000.
X704.249 Y99.494
X687.798 Y99.929
Y100.138
X704.147 Y99.707
Z16.7 F500.
X704.25 Y99.704 F1000.
X704.249 Y99.494
X690.969 Y99.845
Y100.055
X704.147 Y99.707
Z15.7 F500.
X704.25 Y99.704 F1000.
X704.249 Y99.494
X694.14 Y99.761
Y99.971
X704.147 Y99.707
Z14.7 F500.
X704.25 Y99.704 F1000.
X704.249 Y99.494
X697.311 Y99.677
Y99.887
X704.147 Y99.707
G2 X704.169 Y99.678 I-0.001 J-0.023
G1 X704.144 Y99.567
X704.142 Y99.497
Z13.7 F500.
X700.482 Y99.594 F1000.
Y99.804
X704.25 Y99.704
X704.249 Y99.494
X704.142 Y99.497
G2 X704.12 Y99.526 I0.001 J0.023
G1 X704.146 Y99.637
X704.147 Y99.707
Z12.7 F500.
X704.25 Y99.704 F1000.
X704.249 Y99.494
X703.653 Y99.51
Y99.72
X704.147 Y99.707
Z13.
G0 Z25.7

(MORPHED SPIRAL5)
M9
G0 X678.08 Y100.29
Z25.7
Z23.7
G1 Z20.985 F1000.
X678.087 Z20.922
X678.106 Y100.289 Z20.862
X678.138 Z20.807
X678.18 Y100.287 Z20.76
X678.232 Y100.286 Z20.724
X678.29 Y100.284 Z20.698
X704.136 Y99.585 Z12.548
X704.139 Y99.619 Z12.547
X678.291 Y100.319 Z20.698
X678.255 Y100.279 Z20.7
X678.302 Y100.25 Z20.695
X704.154 Y99.533 Z12.542
X704.215 Y99.605 Z12.523
X704.168 Y99.669 Z12.537
X678.284 Y100.389 Z20.7
X678.185 Y100.375
Y100.182
X680.348 Y100.125 Z20.049
X704.25 Y99.494 Z12.512
Y99.704
X678.238 Y100.391 Z20.7
X678.185 Y100.392
Y100.182
G19 G2 Y99.882 Z21. J0. K0.3
G0 Z25.7
G17

(POCKET16 2)
M9
G0 X704.044 Y93.53
Z25.7
Z23.7
G1 Z20. F500.
G2 X704.05 Y93.546 Z19.899 I0.101 J-0.03
X704.081 Y93.584 Z19.81 I0.095 J-0.046
X704.142 Y93.605 Z19.751 I0.063 J-0.084
X704.215 Y93.578 Z19.713 I0.002 J-0.105
X704.249 Y93.5 Z19.7 I-0.071 J-0.078
G1 Y93.395 F1000.
X681.456
Y93.605
X704.249
Y93.5
Z20.
G0 Z23.7
X684.732 Y93.605
Z22.7
G1 Z18.7 F500.
X704.249 F1000.
Y93.395
X684.627
Y93.605
X684.732
G18 G2 X685.032 Z19. I0. K0.3
G0 Z23.7
X687.903 Y93.395
Z21.7
G1 Z17.7 F500.
X687.798 F1000.
Y93.605
X704.249
Y93.395
X687.903
Z18.
G0 Z23.7
X691.074 Y93.605
Z20.7
G1 Z16.7 F500.
X704.249 F1000.
Y93.395
X690.969
Y93.605
X691.074
G2 X691.374 Z17. I0. K0.3
G0 Z23.7
X694.245
G1 Z19.7 F500.
Z15.7
X704.249 F1000.
Y93.395
X694.14
Y93.605
X694.245
G2 X694.545 Z16. I0. K0.3
G0 Z23.7
X697.416
G1 Z18.7 F500.
Z14.7
X704.249 F1000.
Y93.395
X697.311
Y93.605
X697.416
G2 X697.716 Z15. I0. K0.3
G0 Z23.7
X700.587
G1 Z17.7 F500.
Z13.7
X704.249 F1000.
Y93.395
X700.482
Y93.605
X700.587
G2 X700.887 Z14. I0. K0.3
G0 Z23.7
X704.249 Y93.5
G1 Z16.7 F500.
Z12.7
Y93.395 F1000.
X703.653
Y93.605
X704.249
Y93.5
Z13.
G0 Z25.7
G17

(MORPHED SPIRAL5 2)
M9
G0 X678.08 Y93.5
Z25.7
Z23.7
G1 Z20.984 F1000.
X678.087 Z20.922
X678.107 Z20.862
X678.139 Z20.807
X678.181 Z20.76
X678.232 Z20.724
X678.29 Z20.698
X704.142 Y93.479 Z12.546
X704.143 Y93.518 Z12.545
X678.297 Y93.535 Z20.696
Y93.465
X704.149 Y93.424 Z12.544
X704.22 Y93.491 Z12.521
X704.189 Y93.57 Z12.531
X678.285 Y93.605 Z20.7
X678.185
Y93.395
X679.957 Z20.173
X704.25 Z12.512
Y93.605
X678.237 Z20.7
X678.185
G18 G3 X677.885 Z21. I0. K0.3
G0 Z25.7
G17

(POCKET7 2)
M9
G0 X704.044 Y86.53
Z25.7
Z23.7
G1 Z20. F500.
X704.046 Y86.538 Z19.95
X704.05 Y86.546 Z19.899
G2 X704.081 Y86.584 Z19.81 I0.095 J-0.046
X704.142 Y86.605 Z19.751 I0.063 J-0.084
X704.215 Y86.578 Z19.713 I0.002 J-0.105
X704.249 Y86.5 Z19.7 I-0.071 J-0.078
G1 Y86.395 F1000.
X681.456
Y86.605
X704.249
Y86.5
Z20.
G0 Z25.7
X684.732 Y86.605
Z22.7
G1 Z18.7 F500.
X704.249 F1000.
Y86.395
X684.627
Y86.605
X684.732
G18 G2 X685.032 Z19. I0. K0.3
G0 Z25.7
X687.903 Y86.395
Z21.7
G1 Z17.7 F500.
X687.798 F1000.
Y86.605
X704.249
Y86.395
X687.903
Z18.
G0 Z25.7
X691.074 Y86.605
Z20.7
G1 Z16.7 F500.
X704.249 F1000.
Y86.395
X690.969
Y86.605
X691.074
G2 X691.374 Z17. I0. K0.3
G0 Z25.7
X694.245
Z23.7
G1 Z15.7 F500.
X704.249 F1000.
Y86.395
X694.14
Y86.605
X694.245
G2 X694.545 Z16. I0. K0.3
G0 Z25.7
X697.416
G1 Z14.7 F500.
X704.249 F1000.
Y86.395
X697.311
Y86.605
X697.416
G2 X697.716 Z15. I0. K0.3
G0 Z25.7
X700.587
G1 Z13.7 F500.
X704.249 F1000.
Y86.395
X700.482
Y86.605
X700.587
G2 X700.887 Z14. I0. K0.3
G0 Z25.7
X704.249 Y86.5
G1 Z12.7 F500.
Y86.395 F1000.
X703.653
Y86.605
X704.249
Y86.5
Z13.
G0 Z25.7
G17

(MORPHED SPIRAL4 2)
M9
G0 X678.08 Y86.5
Z25.7
Z23.7
G1 Z20.984 F1000.
X678.087 Z20.922
X678.107 Z20.862
X678.139 Z20.807
X678.181 Z20.76
X678.232 Z20.724
X678.29 Z20.698
X704.142 Y86.479 Z12.546
X704.143 Y86.518 Z12.545
X678.297 Y86.535 Z20.696
Y86.465
X704.149 Y86.424 Z12.544
X704.22 Y86.491 Z12.521
X704.189 Y86.57 Z12.531
X678.285 Y86.605 Z20.7
X678.185
Y86.395
X679.957 Z20.173
X704.25 Z12.512
Y86.605
X678.237 Z20.7
X678.185
G18 G3 X677.885 Z21. I0. K0.3
G0 Z25.7
G17

(POCKET7 3)
M9
G0 X704.142 Y80.503
Z25.7
Z23.7
G1 Z19.7 F500.
X704.249 Y80.506 F1000.
X704.25 Y80.296
X681.456 Y79.694
Y79.904
X704.142 Y80.503
G2 X704.165 Y80.475 I0.001 J-0.023
G1 X704.146 Y80.363
X704.147 Y80.293
Z18.7 F500.
X684.627 Y79.778 F1000.
Y79.988
X704.249 Y80.506
X704.25 Y80.296
X704.147 Y80.293
Z17.7 F500.
X687.798 Y79.862 F1000.
Y80.071
X704.249 Y80.506
X704.25 Y80.296
X704.147 Y80.293
Z16.7 F500.
X690.969 Y79.945 F1000.
Y80.155
X704.249 Y80.506
X704.25 Y80.296
X704.147 Y80.293
Z15.7 F500.
X694.14 Y80.029 F1000.
Y80.239
X704.249 Y80.506
X704.25 Y80.296
X704.147 Y80.293
Z14.7 F500.
X697.311 Y80.113 F1000.
Y80.323
X704.249 Y80.506
X704.25 Y80.296
X704.147 Y80.293
G2 X704.135 Y80.327 I0. J0.019
G1 X704.198 Y80.374
X704.249 Y80.398
Z13.7 F500.
X704.25 Y80.296 F1000.
X700.482 Y80.2
Y80.406
X704.249 Y80.506
Y80.398
X704.17 Y80.346
X704.147 Y80.293
Z12.7 F500.
X703.653 Y80.28 F1000.
Y80.49
X704.249 Y80.506
X704.25 Y80.296
X704.147 Y80.293
X704.081 Y80.291 Z12.708
X704.017 Y80.29 Z12.73
X703.96 Y80.288 Z12.765
X703.913 Y80.287 Z12.813
X703.877 Y80.286 Z12.87
X703.855 Y80.285 Z12.933
X703.847 Z13.
G0 Z25.7

(MORPHED SPIRAL4 3)
M9
G0 X678.077 Y79.707
Z25.7
Z23.7
G1 Z20.985 F1000.
X678.084 Z20.923
X678.103 Z20.863
X678.135 Y79.708 Z20.808
X678.178 Y79.71 Z20.761
X678.229 Y79.711 Z20.725
X678.287 Y79.713 Z20.699
X679.072 Y79.736 Z20.452
X704.137 Y80.381 Z12.547
X704.136 Y80.415
X678.305 Y79.75 Z20.694
X678.297 Y79.683 Z20.696
X678.307 Y79.682 Z20.693
X704.169 Y80.33 Z12.537
X704.213 Y80.436 Z12.523
X704.124 Y80.467 Z12.551
X678.285 Y79.82 Z20.7
X678.185 Y79.8
Y79.608
X680.348 Y79.665 Z20.049
X704.25 Y80.296 Z12.512
Y80.506
X678.238 Y79.819 Z20.7
X678.185 Y79.818
Y79.608
G19 G2 Y79.308 Z21. J0. K0.3
G0 Z25.7
G17

(POCKET16 3)
M9
G0 X704.15 Y74.241
Z25.7
Z23.7
G1 Z19.7 F500.
X681.456 Y73.042 F1000.
Y73.253
X704.25 Y74.456
Y74.246
X704.15 Y74.241
G2 X704.078 Y74.273 I-0.005 J0.086
G1 X704.059 Y74.298
G2 X704.044 Y74.375 I0.067 J0.053
G1 Z19. F500.
G2 X704.05 Y74.391 Z18.899 I0.101 J-0.03
X704.082 Y74.43 Z18.81 I0.095 J-0.046
X704.142 Y74.45 Z18.751 I0.063 J-0.084
X704.215 Y74.423 Z18.713 I0.002 J-0.105
X704.25 Y74.345 Z18.7 I-0.071 J-0.078
G1 Y74.246 F1000.
X684.627 Y73.21
Y73.42
X704.25 Y74.456
Y74.345
Z17.7 F500.
Y74.246 F1000.
X687.798 Y73.377
Y73.587
X704.25 Y74.456
Y74.345
Z16.7 F500.
Y74.246 F1000.
X690.969 Y73.545
Y73.755
X704.25 Y74.456
Y74.345
Z15.7 F500.
Y74.246 F1000.
X694.14 Y73.712
Y73.922
X704.25 Y74.456
Y74.345
Z14.7 F500.
Y74.246 F1000.
X697.311 Y73.88
Y74.09
X704.25 Y74.456
Y74.345
Z13.7 F500.
Y74.246 F1000.
X700.482 Y74.047
Y74.257
X704.25 Y74.456
Y74.345
Z12.7 F500.
Y74.246 F1000.
X703.653 Y74.214
Y74.425
X704.25 Y74.456
Y74.345
Z13.
G0 Z25.7

(MORPHED SPIRAL5 3)
M9
G0 X678.081 Y72.969
Z25.7
Z23.7
G1 Z20.984 F1000.
X678.087 Y72.97 Z20.922
X678.107 Y72.971 Z20.862
X678.139 Y72.972 Z20.807
X678.181 Y72.975 Z20.76
X678.232 Y72.977 Z20.723
X678.29 Y72.98 Z20.698
X704.142 Y74.329 Z12.546
X704.132 Y74.362 Z12.549
X678.285 Y73.013 Z20.7
X678.284 Y72.944
X678.295 Y72.945 Z20.697
X684.077 Y73.244 Z18.874
X704.179 Y74.28 Z12.534
X704.203 Y74.407 Z12.526
X703.92 Y74.403 Z12.616
X678.265 Y73.084 Z20.7
X678.185 Y73.062
X678.202 Y72.87
X678.313 Y72.876 Z20.691
X704.25 Y74.246 Z12.512
Y74.456
X678.241 Y73.083 Z20.7
X678.185 Y73.08
Y72.87
X678.313 Y72.876 Z20.691
X678.375 Y72.88 Z20.693
X678.434 Y72.883 Z20.707
X678.49 Y72.886 Z20.734
X678.539 Y72.888 Z20.771
X678.579 Y72.89 Z20.817
X678.609 Y72.892 Z20.871
X678.628 Y72.893 Z20.929
X678.634 Z20.99
G0 Z25.7

(2D CONTOUR7)
M9
G0 X160.92 Y8.5
G1 Z25.7 F1000.
Z22.7
X218. Z18.709 F750.
G3 X218.123 Y8.505 Z18.7 I0. J1.5
X218.693 Y8.669 I-0.123 J1.495 F1000.
G1 X221.84 Y10.308
G3 X222.376 Y10.778 I-0.693 J1.331
G1 X249.468 Y49.469
G3 X249.641 Y49.678 I-1.064 J1.058
G2 X275.139 Y63.134 I25.558 J-17.544
G3 X275.151 I-0.003 J1.5
G1 X710.665 Y67.468
G3 X712.15 Y68.968 I-0.015 J1.5
G1 Y111.032
G3 X710.665 Y112.532 I-1.5 J0.
G1 X275.151 Y116.866
G3 X275.139 I-0.015 J-1.5
G2 X249.641 Y130.322 I0.06 J31.
G3 X249.469 Y130.53 I-1.237 J-0.849
G1 X222.376 Y169.222
G3 X221.84 Y169.693 I-1.229 J-0.86
G1 X218.693 Y171.331
G3 X218. Y171.5 I-0.693 J-1.331
G1 X12.
G3 X10.939 Y171.061 I0. J-1.5
G1 X8.939 Y169.061
G3 X8.5 Y168. I1.061 J-1.061
G1 Y122.
G3 X8.939 Y120.939 I1.5 J0.
G1 X10.939 Y118.939
G3 X12. Y118.5 I1.061 J1.061
G1 X23.5
Y61.5
X12.
G3 X10.939 Y61.061 I0. J-1.5
G1 X8.939 Y59.061
G3 X8.5 Y58. I1.061 J-1.061
G1 Y12.
G3 X8.939 Y10.939 I1.5 J0.
G1 X10.939 Y8.939
G3 X12. Y8.5 I1.061 J1.061
G1 X218.
G3 X218.123 Y8.505 I0. J1.5
X218.693 Y8.669 Z18.693 I-0.123 J1.495 F750.
G1 X221.84 Y10.308 Z18.651
G3 X222.376 Y10.778 Z18.642 I-0.693 J1.331
G1 X249.468 Y49.469 Z18.083
G3 X249.641 Y49.678 Z18.079 I-1.064 J1.058
G2 X275.139 Y63.134 Z17.724 I25.558 J-17.544
G3 X275.151 I-0.003 J1.5
G1 X361.533 Y63.994 Z16.7
X710.665 Y67.468 F1000.
G3 X712.15 Y68.968 I-0.015 J1.5
G1 Y111.032
G3 X710.665 Y112.532 I-1.5 J0.
G1 X275.151 Y116.866
G3 X275.139 I-0.015 J-1.5
G2 X249.641 Y130.322 I0.06 J31.
G3 X249.469 Y130.53 I-1.237 J-0.849
G1 X222.376 Y169.222
G3 X221.84 Y169.693 I-1.229 J-0.86
G1 X218.693 Y171.331
G3 X218. Y171.5 I-0.693 J-1.331
G1 X12.
G3 X10.939 Y171.061 I0. J-1.5
G1 X8.939 Y169.061
G3 X8.5 Y168. I1.061 J-1.061
G1 Y122.
G3 X8.939 Y120.939 I1.5 J0.
G1 X10.939 Y118.939
G3 X12. Y118.5 I1.061 J1.061
G1 X23.5
Y61.5
X12.
G3 X10.939 Y61.061 I0. J-1.5
G1 X8.939 Y59.061
G3 X8.5 Y58. I1.061 J-1.061
G1 Y12.
G3 X8.939 Y10.939 I1.5 J0.
G1 X10.939 Y8.939
G3 X12. Y8.5 I1.061 J1.061
G1 X218.
G3 X218.693 Y8.669 I0. J1.5
G1 X221.84 Y10.308
G3 X222.376 Y10.778 I-0.693 J1.331
G1 X249.468 Y49.469
G3 X249.641 Y49.678 I-1.064 J1.058
G2 X275.139 Y63.134 I25.558 J-17.544
G3 X275.151 I-0.003 J1.5
G1 X361.533 Y63.994
X530.278 Y65.673 Z14.7 F750.
X710.665 Y67.468 F1000.
G3 X712.15 Y68.968 I-0.015 J1.5
G1 Y111.032
G3 X710.665 Y112.532 I-1.5 J0.
G1 X275.151 Y116.866
G3 X275.139 I-0.015 J-1.5
G2 X249.641 Y130.322 I0.06 J31.
G3 X249.469 Y130.53 I-1.237 J-0.849
G1 X222.376 Y169.222
G3 X221.84 Y169.693 I-1.229 J-0.86
G1 X218.693 Y171.331
G3 X218. Y171.5 I-0.693 J-1.331
G1 X12.
G3 X10.939 Y171.061 I0. J-1.5
G1 X8.939 Y169.061
G3 X8.5 Y168. I1.061 J-1.061
G1 Y122.
G3 X8.939 Y120.939 I1.5 J0.
G1 X10.939 Y118.939
G3 X12. Y118.5 I1.061 J1.061
G1 X23.5
Y61.5
X12.
G3 X10.939 Y61.061 I0. J-1.5
G1 X8.939 Y59.061
G3 X8.5 Y58. I1.061 J-1.061
G1 Y12.
G3 X8.939 Y10.939 I1.5 J0.
G1 X10.939 Y8.939
G3 X12. Y8.5 I1.061 J1.061
G1 X218.
G3 X218.693 Y8.669 I0. J1.5
G1 X221.84 Y10.308
G3 X222.376 Y10.778 I-0.693 J1.331
G1 X249.468 Y49.469
G3 X249.641 Y49.678 I-1.064 J1.058
G2 X275.139 Y63.134 I25.558 J-17.544
G3 X275.151 I-0.003 J1.5
G1 X530.278 Y65.673
X699.024 Y67.352 Z12.7 F750.
X710.665 Y67.468 F1000.
G3 X712.15 Y68.968 I-0.015 J1.5
G1 Y111.032
G3 X710.665 Y112.532 I-1.5 J0.
G1 X275.151 Y116.866
G3 X275.139 I-0.015 J-1.5
G2 X249.641 Y130.322 I0.06 J31.
G3 X249.469 Y130.53 I-1.237 J-0.849
G1 X222.376 Y169.222
G3 X221.84 Y169.693 I-1.229 J-0.86
G1 X218.693 Y171.331
G3 X218. Y171.5 I-0.693 J-1.331
G1 X12.
G3 X10.939 Y171.061 I0. J-1.5
G1 X8.939 Y169.061
G3 X8.5 Y168. I1.061 J-1.061
G1 Y122.
G3 X8.939 Y120.939 I1.5 J0.
G1 X10.939 Y118.939
G3 X12. Y118.5 I1.061 J1.061
G1 X23.5
Y61.5
X12.
G3 X10.939 Y61.061 I0. J-1.5
G1 X8.939 Y59.061
G3 X8.5 Y58. I1.061 J-1.061
G1 Y12.
G3 X8.939 Y10.939 I1.5 J0.
G1 X10.939 Y8.939
G3 X12. Y8.5 I1.061 J1.061
G1 X218.
G3 X218.693 Y8.669 I0. J1.5
G1 X221.84 Y10.308
G3 X222.376 Y10.778 I-0.693 J1.331
G1 X249.468 Y49.469
G3 X249.641 Y49.678 I-1.064 J1.058
G2 X275.139 Y63.134 I25.558 J-17.544
G3 X275.151 I-0.003 J1.5
G1 X699.024 Y67.352
X710.665 Y67.468 Z12.562 F750.
G3 X712.15 Y68.968 Z12.534 I-0.015 J1.5
G1 Y111.032 Z12.036
G3 X710.665 Y112.532 Z12.008 I-1.5 J0.
G1 X600.305 Y113.63 Z10.7
X275.151 Y116.866 F1000.
G3 X275.139 I-0.015 J-1.5
G2 X249.641 Y130.322 I0.06 J31.
G3 X249.469 Y130.53 I-1.237 J-0.849
G1 X222.376 Y169.222
G3 X221.84 Y169.693 I-1.229 J-0.86
G1 X218.693 Y171.331
G3 X218. Y171.5 I-0.693 J-1.331
G1 X12.
G3 X10.939 Y171.061 I0. J-1.5
G1 X8.939 Y169.061
G3 X8.5 Y168. I1.061 J-1.061
G1 Y122.
G3 X8.939 Y120.939 I1.5 J0.
G1 X10.939 Y118.939
G3 X12. Y118.5 I1.061 J1.061
G1 X23.5
Y61.5
X12.
G3 X10.939 Y61.061 I0. J-1.5
G1 X8.939 Y59.061
G3 X8.5 Y58. I1.061 J-1.061
G1 Y12.
G3 X8.939 Y10.939 I1.5 J0.
G1 X10.939 Y8.939
G3 X12. Y8.5 I1.061 J1.061
G1 X218.
G3 X218.693 Y8.669 I0. J1.5
G1 X221.84 Y10.308
G3 X222.376 Y10.778 I-0.693 J1.331
G1 X249.468 Y49.469
G3 X249.641 Y49.678 I-1.064 J1.058
G2 X275.139 Y63.134 I25.558 J-17.544
G3 X275.151 I-0.003 J1.5
G1 X710.665 Y67.468
G3 X712.15 Y68.968 I-0.015 J1.5
G1 Y111.032
G3 X710.665 Y112.532 I-1.5 J0.
G1 X600.305 Y113.63
X431.56 Y115.309 Z8.7 F750.
X275.151 Y116.866 F1000.
G3 X275.139 I-0.015 J-1.5
G2 X249.641 Y130.322 I0.06 J31.
G3 X249.469 Y130.53 I-1.237 J-0.849
G1 X222.376 Y169.222
G3 X221.84 Y169.693 I-1.229 J-0.86
G1 X218.693 Y171.331
G3 X218. Y171.5 I-0.693 J-1.331
G1 X12.
G3 X10.939 Y171.061 I0. J-1.5
G1 X8.939 Y169.061
G3 X8.5 Y168. I1.061 J-1.061
G1 Y122.
G3 X8.939 Y120.939 I1.5 J0.
G1 X10.939 Y118.939
G3 X12. Y118.5 I1.061 J1.061
G1 X23.5
Y61.5
X12.
G3 X10.939 Y61.061 I0. J-1.5
G1 X8.939 Y59.061
G3 X8.5 Y58. I1.061 J-1.061
G1 Y12.
G3 X8.939 Y10.939 I1.5 J0.
G1 X10.939 Y8.939
G3 X12. Y8.5 I1.061 J1.061
G1 X218.
G3 X218.693 Y8.669 I0. J1.5
G1 X221.84 Y10.308
G3 X222.376 Y10.778 I-0.693 J1.331
G1 X249.468 Y49.469
G3 X249.641 Y49.678 I-1.064 J1.058
G2 X275.139 Y63.134 I25.558 J-17.544
G3 X275.151 I-0.003 J1.5
G1 X710.665 Y67.468
G3 X712.15 Y68.968 I-0.015 J1.5
G1 Y111.032
G3 X710.665 Y112.532 I-1.5 J0.
G1 X431.56 Y115.309
X275.151 Y116.866 Z6.846 F750.
G3 X275.139 I-0.015 J-1.5
G2 X263.14 Y119.307 Z6.7 I0.06 J31.
X249.641 Y130.322 I12.058 J28.559 F1000.
G3 X249.469 Y130.53 I-1.237 J-0.849
G1 X222.376 Y169.222
G3 X221.84 Y169.693 I-1.229 J-0.86
G1 X218.693 Y171.331
G3 X218. Y171.5 I-0.693 J-1.331
G1 X12.
G3 X10.939 Y171.061 I0. J-1.5
G1 X8.939 Y169.061
G3 X8.5 Y168. I1.061 J-1.061
G1 Y122.
G3 X8.939 Y120.939 I1.5 J0.
G1 X10.939 Y118.939
G3 X12. Y118.5 I1.061 J1.061
G1 X23.5
Y61.5
X12.
G3 X10.939 Y61.061 I0. J-1.5
G1 X8.939 Y59.061
G3 X8.5 Y58. I1.061 J-1.061
G1 Y12.
G3 X8.939 Y10.939 I1.5 J0.
G1 X10.939 Y8.939
G3 X12. Y8.5 I1.061 J1.061
G1 X218.
G3 X218.693 Y8.669 I0. J1.5
G1 X221.84 Y10.308
G3 X222.376 Y10.778 I-0.693 J1.331
G1 X249.468 Y49.469
G3 X249.641 Y49.678 I-1.064 J1.058
G2 X275.139 Y63.134 I25.558 J-17.544
G3 X275.151 I-0.003 J1.5
G1 X710.665 Y67.468
G3 X712.15 Y68.968 I-0.015 J1.5
G1 Y111.032
G3 X710.665 Y112.532 I-1.5 J0.
G1 X275.151 Y116.866
G3 X275.139 I-0.015 J-1.5
G2 X263.14 Y119.307 I0.06 J31.
X249.641 Y130.322 Z6.491 I12.058 J28.559 F750.
G3 X249.469 Y130.53 Z6.487 I-1.237 J-0.849
G1 X222.376 Y169.222 Z5.928
G3 X221.84 Y169.693 Z5.919 I-1.229 J-0.86
G1 X218.693 Y171.331 Z5.877
G3 X218. Y171.5 Z5.869 I-0.693 J-1.331
G1 X119.4 Z4.7
X12. F1000.
G3 X10.939 Y171.061 I0. J-1.5
G1 X8.939 Y169.061
G3 X8.5 Y168. I1.061 J-1.061
G1 Y122.
G3 X8.939 Y120.939 I1.5 J0.
G1 X10.939 Y118.939
G3 X12. Y118.5 I1.061 J1.061
G1 X23.5
Y61.5
X12.
G3 X10.939 Y61.061 I0. J-1.5
G1 X8.939 Y59.061
G3 X8.5 Y58. I1.061 J-1.061
G1 Y12.
G3 X8.939 Y10.939 I1.5 J0.
G1 X10.939 Y8.939
G3 X12. Y8.5 I1.061 J1.061
G1 X218.
G3 X218.693 Y8.669 I0. J1.5
G1 X221.84 Y10.308
G3 X222.376 Y10.778 I-0.693 J1.331
G1 X249.468 Y49.469
G3 X249.641 Y49.678 I-1.064 J1.058
G2 X275.139 Y63.134 I25.558 J-17.544
G3 X275.151 I-0.003 J1.5
G1 X710.665 Y67.468
G3 X712.15 Y68.968 I-0.015 J1.5
G1 Y111.032
G3 X710.665 Y112.532 I-1.5 J0.
G1 X275.151 Y116.866
G3 X275.139 I-0.015 J-1.5
G2 X249.641 Y130.322 I0.06 J31.
G3 X249.469 Y130.53 I-1.237 J-0.849
G1 X222.376 Y169.222
G3 X221.84 Y169.693 I-1.229 J-0.86
G1 X218.693 Y171.331
G3 X218. Y171.5 I-0.693 J-1.331
G1 X119.4
X12. Z3.427 F750.
G3 X10.939 Y171.061 Z3.413 I0. J-1.5
G1 X8.939 Y169.061 Z3.38
G3 X8.5 Y168. Z3.366 I1.061 J-1.061
G1 Y122. Z2.821
G3 X8.939 Y120.939 Z2.807 I1.5 J0.
G1 X10.939 Y118.939 Z2.773
G3 X12. Y118.5 Z2.759 I1.061 J1.061
G1 X16.985 Z2.7
X23.5 F1000.
Y92.395
Z4.
Y82.395
Z2.7 F500.
Y61.5 F1000.
X12.
G3 X10.939 Y61.061 I0. J-1.5
G1 X8.939 Y59.061
G3 X8.5 Y58. I1.061 J-1.061
G1 Y12.
G3 X8.939 Y10.939 I1.5 J0.
G1 X10.939 Y8.939
G3 X12. Y8.5 I1.061 J1.061
G1 X123.292
Z4.
X133.292
Z2.7 F500.
X218. F1000.
G3 X218.693 Y8.669 I0. J1.5
G1 X221.84 Y10.308
G3 X222.376 Y10.778 I-0.693 J1.331
G1 X239.492 Y35.222
Z4.
X245.228 Y43.414
Z2.7 F500.
X249.468 Y49.469 F1000.
G3 X249.641 Y49.678 I-1.064 J1.058
G2 X275.139 Y63.134 I25.558 J-17.544
G3 X275.151 I-0.003 J1.5
G1 X472.352 Y65.096
Z4.
X482.352 Y65.196
Z2.7 F500.
X710.665 Y67.468 F1000.
G3 X712.15 Y68.968 I-0.015 J1.5
G1 Y87.108
Z4.
Y97.108
Z2.7 F500.
Y111.032 F1000.
G3 X710.665 Y112.532 I-1.5 J0.
G1 X482.008 Y114.807
Z4.
X472.008 Y114.907
Z2.7 F500.
X275.151 Y116.866 F1000.
G3 X275.139 I-0.015 J-1.5
G2 X249.641 Y130.322 I0.06 J31.
G3 X249.469 Y130.53 I-1.237 J-0.849
G1 X246.708 Y134.473
Z4.
X240.972 Y142.664
Z2.7 F500.
X222.376 Y169.222 F1000.
G3 X221.84 Y169.693 I-1.229 J-0.86
G1 X218.693 Y171.331
G3 X218. Y171.5 I-0.693 J-1.331
G1 X126.53
Z4.
X116.53
Z2.7 F500.
X12. F1000.
G3 X10.939 Y171.061 I0. J-1.5
G1 X8.939 Y169.061
G3 X8.5 Y168. I1.061 J-1.061
G1 Y122.
G3 X8.939 Y120.939 I1.5 J0.
G1 X10.939 Y118.939
G3 X12. Y118.5 I1.061 J1.061
G1 X16.985
X23.5 Z2.623 F750.
Y92.395 Z2.313
Z4.
Y82.395
Z2.195 F500.
Y61.5 Z1.947 F750.
X12. Z1.811
G3 X10.939 Y61.061 Z1.797 I0. J-1.5
G1 X8.939 Y59.061 Z1.763
G3 X8.5 Y58. Z1.75 I1.061 J-1.061
G1 Y12. Z1.204
G3 X8.939 Y10.939 Z1.19 I1.5 J0.
G1 X10.939 Y8.939 Z1.157
G3 X12. Y8.5 Z1.143 I1.061 J1.061
G1 X49.369 Z0.7
X123.292 F1000.
Z4.
X133.292
Z0.7 F500.
X218. F1000.
G3 X218.693 Y8.669 I0. J1.5
G1 X221.84 Y10.308
G3 X222.376 Y10.778 I-0.693 J1.331
G1 X239.492 Y35.222
Z4.
X245.228 Y43.414
Z0.7 F500.
X249.468 Y49.469 F1000.
G3 X249.641 Y49.678 I-1.064 J1.058
G2 X275.139 Y63.134 I25.558 J-17.544
G3 X275.151 I-0.003 J1.5
G1 X472.352 Y65.096
Z4.
X482.352 Y65.196
Z0.7 F500.
X710.665 Y67.468 F1000.
G3 X712.15 Y68.968 I-0.015 J1.5
G1 Y87.108
Z4.
Y97.108
Z0.7 F500.
Y111.032 F1000.
G3 X710.665 Y112.532 I-1.5 J0.
G1 X482.008 Y114.807
Z4.
X472.008 Y114.907
Z0.7 F500.
X275.151 Y116.866 F1000.
G3 X275.139 I-0.015 J-1.5
G2 X249.641 Y130.322 I0.06 J31.
G3 X249.469 Y130.53 I-1.237 J-0.849
G1 X246.708 Y134.473
Z4.
X240.972 Y142.664
Z0.7 F500.
X222.376 Y169.222 F1000.
G3 X221.84 Y169.693 I-1.229 J-0.86
G1 X218.693 Y171.331
G3 X218. Y171.5 I-0.693 J-1.331
G1 X126.53
Z4.
X116.53
Z0.7 F500.
X12. F1000.
G3 X10.939 Y171.061 I0. J-1.5
G1 X8.939 Y169.061
G3 X8.5 Y168. I1.061 J-1.061
G1 Y122.
G3 X8.939 Y120.939 I1.5 J0.
G1 X10.939 Y118.939
G3 X12. Y118.5 I1.061 J1.061
G1 X23.5
Y92.395
Z4.
Y82.395
Z0.7 F500.
Y61.5 F1000.
X12.
G3 X10.939 Y61.061 I0. J-1.5
G1 X8.939 Y59.061
G3 X8.5 Y58. I1.061 J-1.061
G1 Y12.
G3 X8.939 Y10.939 I1.5 J0.
G1 X10.939 Y8.939
G3 X12. Y8.5 I1.061 J1.061
G1 X49.369
X108.433 Z0. F750.
X123.292 F1000.
Z4.
X133.292
Z0. F500.
X218. F1000.
G3 X218.693 Y8.669 I0. J1.5
G1 X221.84 Y10.308
G3 X222.376 Y10.778 I-0.693 J1.331
G1 X239.492 Y35.222
Z4.
X245.228 Y43.414
Z0. F500.
X249.468 Y49.469 F1000.
G3 X249.641 Y49.678 I-1.064 J1.058
G2 X275.139 Y63.134 I25.558 J-17.544
G3 X275.151 I-0.003 J1.5
G1 X472.352 Y65.096
Z4.
X482.352 Y65.196
Z0. F500.
X710.665 Y67.468 F1000.
G3 X712.15 Y68.968 I-0.015 J1.5
G1 Y87.108
Z4.
Y97.108
Z0. F500.
Y111.032 F1000.
G3 X710.665 Y112.532 I-1.5 J0.
G1 X482.008 Y114.807
Z4.
X472.008 Y114.907
Z0. F500.
X275.151 Y116.866 F1000.
G3 X275.139 I-0.015 J-1.5
G2 X249.641 Y130.322 I0.06 J31.
G3 X249.469 Y130.53 I-1.237 J-0.849
G1 X246.708 Y134.473
Z4.
X240.972 Y142.664
Z0. F500.
X222.376 Y169.222 F1000.
G3 X221.84 Y169.693 I-1.229 J-0.86
G1 X218.693 Y171.331
G3 X218. Y171.5 I-0.693 J-1.331
G1 X126.53
Z4.
X116.53
Z0. F500.
X12. F1000.
G3 X10.939 Y171.061 I0. J-1.5
G1 X8.939 Y169.061
G3 X8.5 Y168. I1.061 J-1.061
G1 Y122.
G3 X8.939 Y120.939 I1.5 J0.
G1 X10.939 Y118.939
G3 X12. Y118.5 I1.061 J1.061
G1 X23.5
Y92.395
Z4.
Y82.395
Z0. F500.
Y61.5 F1000.
X12.
G3 X10.939 Y61.061 I0. J-1.5
G1 X8.939 Y59.061
G3 X8.5 Y58. I1.061 J-1.061
G1 Y12.
G3 X8.939 Y10.939 I1.5 J0.
G1 X10.939 Y8.939
G3 X12. Y8.5 I1.061 J1.061
G1 X108.433
G0 Z25.7

(2D CONTOUR6)
M9
G0 X139.464 Y178.5
G1 Z25.7 F1000.
Z22.7
X196.666 Z18.7 F750.
X242.736 F1000.
X276.831 Y129.808
G3 X278.06 Y129.168 I1.229 J0.86
G1 X719.15
Y50.832
X278.06
G3 X276.831 Y50.192 I0. J-1.5
G1 X242.736 Y1.5
X1.5
Y177.
G3 X0. Y178.5 I-1.5 J0.
G2 Y181.5 I0. J1.5
X1.5 Y180. I0. J-1.5
G3 X3. Y178.5 I1.5 J0.
G1 X196.666
X242.736 Z18.174 F750.
X276.831 Y129.808 Z17.495
G3 X278.06 Y129.168 Z17.478 I1.229 J0.86
G1 X346.161 Z16.7
X719.15 F1000.
Y50.832
X278.06
G3 X276.831 Y50.192 I0. J-1.5
G1 X242.736 Y1.5
X1.5
Y177.
G3 X0. Y178.5 I-1.5 J0.
G2 Y181.5 I0. J1.5
X1.5 Y180. I0. J-1.5
G3 X3. Y178.5 I1.5 J0.
G1 X242.736
X276.831 Y129.808
G3 X278.06 Y129.168 I1.229 J0.86
G1 X346.161
X521.214 Z14.7 F750.
X719.15 F1000.
Y50.832
X278.06
G3 X276.831 Y50.192 I0. J-1.5
G1 X242.736 Y1.5
X1.5
Y177.
G3 X0. Y178.5 I-1.5 J0.
G2 Y181.5 I0. J1.5
X1.5 Y180. I0. J-1.5
G3 X3. Y178.5 I1.5 J0.
G1 X242.736
X276.831 Y129.808
G3 X278.06 Y129.168 I1.229 J0.86
G1 X521.214
X696.268 Z12.7 F750.
X719.15 F1000.
Y50.832
X278.06
G3 X276.831 Y50.192 I0. J-1.5
G1 X242.736 Y1.5
X1.5
Y177.
G3 X0. Y178.5 I-1.5 J0.
G2 Y181.5 I0. J1.5
X1.5 Y180. I0. J-1.5
G3 X3. Y178.5 I1.5 J0.
G1 X242.736
X276.831 Y129.808
G3 X278.06 Y129.168 I1.229 J0.86
G1 X696.268
X719.15 Z12.439 F750.
Y50.832 Z11.544
X645.315 Z10.7
X278.06 F1000.
G3 X276.831 Y50.192 I0. J-1.5
G1 X242.736 Y1.5
X1.5
Y177.
G3 X0. Y178.5 I-1.5 J0.
G2 Y181.5 I0. J1.5
X1.5 Y180. I0. J-1.5
G3 X3. Y178.5 I1.5 J0.
G1 X242.736
X276.831 Y129.808
G3 X278.06 Y129.168 I1.229 J0.86
G1 X719.15
Y50.832
X645.315
X470.261 Z8.7 F750.
X278.06 F1000.
G3 X276.831 Y50.192 I0. J-1.5
G1 X242.736 Y1.5
X1.5
Y177.
G3 X0. Y178.5 I-1.5 J0.
G2 Y181.5 I0. J1.5
X1.5 Y180. I0. J-1.5
G3 X3. Y178.5 I1.5 J0.
G1 X242.736
X276.831 Y129.808
G3 X278.06 Y129.168 I1.229 J0.86
G1 X719.15
Y50.832
X470.261
X295.208 Z6.7 F750.
X278.06 F1000.
G3 X276.831 Y50.192 I0. J-1.5
G1 X242.736 Y1.5
X1.5
Y177.
G3 X0. Y178.5 I-1.5 J0.
G2 Y181.5 I0. J1.5
X1.5 Y180. I0. J-1.5
G3 X3. Y178.5 I1.5 J0.
G1 X242.736
X276.831 Y129.808
G3 X278.06 Y129.168 I1.229 J0.86
G1 X719.15
Y50.832
X295.208
X278.06 Z6.504 F750.
G3 X276.831 Y50.192 Z6.488 I0. J-1.5
G1 X242.736 Y1.5 Z5.808
X145.713 Z4.7
X1.5 F1000.
Y177.
G3 X0. Y178.5 I-1.5 J0.
G2 Y181.5 I0. J1.5
X1.5 Y180. I0. J-1.5
G3 X3. Y178.5 I1.5 J0.
G1 X242.736
X276.831 Y129.808
G3 X278.06 Y129.168 I1.229 J0.86
G1 X719.15
Y50.832
X278.06
G3 X276.831 Y50.192 I0. J-1.5
G1 X242.736 Y1.5
X145.713
X1.5 Z3.052 F750.
Y32.34 Z2.7
Y177. F1000.
G3 X0. Y178.5 I-1.5 J0.
G2 Y181.5 I0. J1.5
X1.5 Y180. I0. J-1.5
G3 X3. Y178.5 I1.5 J0.
G1 X242.736
X276.831 Y129.808
G3 X278.06 Y129.168 I1.229 J0.86
G1 X719.15
Y50.832
X278.06
G3 X276.831 Y50.192 I0. J-1.5
G1 X242.736 Y1.5
X1.5
Y32.34
Y93.609 Z2. F750.
Y94.179
Z1.993 F500.
Y177. Z1.047 F750.
G3 X0. Y178.5 Z1.02 I-1.5 J0.
G2 Y181.5 Z0.966 I0. J1.5
X1.5 Y180. Z0.94 I0. J-1.5
G3 X3. Y178.5 Z0.913 I1.5 J0.
G1 X21.613 Z0.7
X122.927 F1000.
Z2.
X130.927
Z0.7 F500.
X242.736 F1000.
X259.358 Y154.762
Z2.
X263.946 Y148.209
Z0.7 F500.
X276.831 Y129.808 F1000.
G3 X278.06 Y129.168 I1.229 J0.86
G1 X503.026
Z2.
X511.026
Z0.7 F500.
X719.15 F1000.
Y91.063
Z2.
Y83.063
Z0.7 F500.
Y50.832 F1000.
X506.659
Z2.
X498.659
Z0.7 F500.
X278.06 F1000.
G3 X276.831 Y50.192 I0. J-1.5
G1 X261.137 Y27.778
Z2.
X256.548 Y21.225
Z0.7 F500.
X242.736 Y1.5 F1000.
X128.274
Z2.
X120.274
Z0.7 F500.
X1.5 F1000.
Y86.179
Z2.
Y94.179
Z0.7 F500.
Y177. F1000.
G3 X0. Y178.5 I-1.5 J0.
G2 Y181.5 I0. J1.5
X1.5 Y180. I0. J-1.5
G3 X3. Y178.5 I1.5 J0.
G1 X21.613
X82.881 Z0. F750.
X122.927 F1000.
Z2.
X130.927
Z0. F500.
X242.736 F1000.
X259.358 Y154.762
Z2.
X263.946 Y148.209
Z0. F500.
X276.831 Y129.808 F1000.
G3 X278.06 Y129.168 I1.229 J0.86
G1 X503.026
Z2.
X511.026
Z0. F500.
X719.15 F1000.
Y91.063
Z2.
Y83.063
Z0. F500.
Y50.832 F1000.
X506.659
Z2.
X498.659
Z0. F500.
X278.06 F1000.
G3 X276.831 Y50.192 I0. J-1.5
G1 X261.137 Y27.778
Z2.
X256.548 Y21.225
Z0. F500.
X242.736 Y1.5 F1000.
X128.274
Z2.
X120.274
Z0. F500.
X1.5 F1000.
Y86.179
Z2.
Y94.179
Z0. F500.
Y177. F1000.
G3 X0. Y178.5 I-1.5 J0.
G2 Y181.5 I0. J1.5
X1.5 Y180. I0. J-1.5
G3 X3. Y178.5 I1.5 J0.
G1 X82.881
G0 Z25.7

M9
M30
