(1)
(TRAVEL EGUITAR VERTICAL STRINGS ROD)
(T3  D=3. CR=0. - ZMIN=-15. - FLAT END MILL)
G0 G90 G94 G17
G21

(2D POCKET10)
M5
M9
T3
M3 S16000
G54
M9
Z5.
G0 X113.18 Y8.35
G1 Z3. F1000.
Z-2. F500.
Y12.851 F1000.
G2 X113.499 Y13.17 I0.319 J0.
G1 X114.501
G2 X114.82 Y12.851 I0. J-0.319
G1 Y7.849
G2 X114.501 Y7.53 I-0.319 J0.
G1 X113.495
G2 X113.18 Y7.845 I0. J0.315
G1 Y8.35
G3 X112.34 Y9.61 I-1.365 J0.
G2 X111.5 Y10.87 I0.525 J1.26
G1 Y14.85
X116.5
Y5.85
X111.5
Y10.87
G2 X111.975 Y11.027 I0.264 J0.
G1 X112.591 Y10.198
G2 X112.619 Y10.15 I-0.212 J-0.157
G1 X113.332 Y8.586
X113.353 Y8.356
G2 X113.269 Y8.264 I-0.086 J-0.006
X113.18 Y8.35 I-0.003 J0.086
G1 Z-4. F500.
Y12.851 F1000.
G2 X113.499 Y13.17 I0.319 J0.
G1 X114.501
G2 X114.82 Y12.851 I0. J-0.319
G1 Y7.849
G2 X114.501 Y7.53 I-0.319 J0.
G1 X113.495
G2 X113.18 Y7.845 I0. J0.315
G1 Y8.35
G3 X112.34 Y9.61 I-1.365 J0.
G2 X111.5 Y10.87 I0.525 J1.26
G1 Y14.85
X116.5
Y5.85
X111.5
Y10.87
G2 X111.975 Y11.027 I0.264 J0.
G1 X112.591 Y10.198
G2 X112.619 Y10.15 I-0.212 J-0.157
G1 X113.332 Y8.586
X113.353 Y8.356
G2 X113.269 Y8.264 I-0.086 J-0.006
X113.18 Y8.35 I-0.003 J0.086
G1 Z-6. F500.
Y12.851 F1000.
G2 X113.499 Y13.17 I0.319 J0.
G1 X114.501
G2 X114.82 Y12.851 I0. J-0.319
G1 Y7.849
G2 X114.501 Y7.53 I-0.319 J0.
G1 X113.495
G2 X113.18 Y7.845 I0. J0.315
G1 Y8.35
G3 X112.34 Y9.61 I-1.365 J0.
G2 X111.5 Y10.87 I0.525 J1.26
G1 Y14.85
X116.5
Y5.85
X111.5
Y10.87
G2 X111.975 Y11.027 I0.264 J0.
G1 X112.591 Y10.198
G2 X112.619 Y10.15 I-0.212 J-0.157
G1 X113.332 Y8.586
X113.353 Y8.356
G2 X113.269 Y8.264 I-0.086 J-0.006
X113.18 Y8.35 I-0.003 J0.086
G1 Z-8. F500.
Y12.851 F1000.
G2 X113.499 Y13.17 I0.319 J0.
G1 X114.501
G2 X114.82 Y12.851 I0. J-0.319
G1 Y7.849
G2 X114.501 Y7.53 I-0.319 J0.
G1 X113.495
G2 X113.18 Y7.845 I0. J0.315
G1 Y8.35
G3 X112.34 Y9.61 I-1.365 J0.
G2 X111.5 Y10.87 I0.525 J1.26
G1 Y14.85
X116.5
Y5.85
X111.5
Y10.87
G2 X111.975 Y11.027 I0.264 J0.
G1 X112.591 Y10.198
G2 X112.619 Y10.15 I-0.212 J-0.157
G1 X113.332 Y8.586
X113.353 Y8.356
G2 X113.269 Y8.264 I-0.086 J-0.006
X113.18 Y8.35 I-0.003 J0.086
G1 Z-10. F500.
Y12.851 F1000.
G2 X113.499 Y13.17 I0.319 J0.
G1 X114.501
G2 X114.82 Y12.851 I0. J-0.319
G1 Y7.849
G2 X114.501 Y7.53 I-0.319 J0.
G1 X113.495
G2 X113.18 Y7.845 I0. J0.315
G1 Y8.35
G3 X112.34 Y9.61 I-1.365 J0.
G2 X111.5 Y10.87 I0.525 J1.26
G1 Y14.85
X116.5
Y5.85
X111.5
Y10.87
G2 X111.975 Y11.027 I0.264 J0.
G1 X112.591 Y10.198
G2 X112.619 Y10.15 I-0.212 J-0.157
G1 X113.332 Y8.586
X113.353 Y8.356
G2 X113.269 Y8.264 I-0.086 J-0.006
X113.18 Y8.35 I-0.003 J0.086
G1 Z-12. F500.
Y12.851 F1000.
G2 X113.499 Y13.17 I0.319 J0.
G1 X114.501
G2 X114.82 Y12.851 I0. J-0.319
G1 Y7.849
G2 X114.501 Y7.53 I-0.319 J0.
G1 X113.495
G2 X113.18 Y7.845 I0. J0.315
G1 Y8.35
G3 X112.34 Y9.61 I-1.365 J0.
G2 X111.5 Y10.87 I0.525 J1.26
G1 Y14.85
X116.5
Y5.85
X111.5
Y10.87
G2 X111.975 Y11.027 I0.264 J0.
G1 X112.591 Y10.198
G2 X112.619 Y10.15 I-0.212 J-0.157
G1 X113.332 Y8.586
X113.353 Y8.356
G2 X113.269 Y8.264 I-0.086 J-0.006
X113.18 Y8.35 I-0.003 J0.086
G1 Z-14. F500.
Y12.851 F1000.
G2 X113.499 Y13.17 I0.319 J0.
G1 X114.501
G2 X114.82 Y12.851 I0. J-0.319
G1 Y7.849
G2 X114.501 Y7.53 I-0.319 J0.
G1 X113.495
G2 X113.18 Y7.845 I0. J0.315
G1 Y8.35
G3 X112.34 Y9.61 I-1.365 J0.
G2 X111.5 Y10.87 I0.525 J1.26
G1 Y14.85
X116.5
Y5.85
X111.5
Y10.87
G2 X111.975 Y11.027 I0.264 J0.
G1 X112.591 Y10.198
G2 X112.619 Y10.15 I-0.212 J-0.157
G1 X113.332 Y8.586
X113.353 Y8.356
G2 X113.269 Y8.264 I-0.086 J-0.006
X113.18 Y8.35 I-0.003 J0.086
G1 Z-15. F500.
Y12.851 F1000.
G2 X113.499 Y13.17 I0.319 J0.
G1 X114.501
G2 X114.82 Y12.851 I0. J-0.319
G1 Y7.849
G2 X114.501 Y7.53 I-0.319 J0.
G1 X113.495
G2 X113.18 Y7.845 I0. J0.315
G1 Y8.35
G3 X112.34 Y9.61 I-1.365 J0.
G2 X111.5 Y10.87 I0.525 J1.26
G1 Y14.85
X116.5
Y5.85
X111.5
Y10.87
X112.07 Z-14.943
G0 Z5.
X45.18 Y8.35
G1 Z3. F500.
Z-2.
Y12.851 F1000.
G2 X45.499 Y13.17 I0.319 J0.
G1 X46.501
G2 X46.82 Y12.851 I0. J-0.319
G1 Y7.849
G2 X46.501 Y7.53 I-0.319 J0.
G1 X45.495
G2 X45.18 Y7.845 I0. J0.315
G1 Y8.35
G3 X44.34 Y9.61 I-1.365 J0.
G2 X43.5 Y10.87 I0.525 J1.26
G1 Y14.85
X48.5
Y5.85
X43.5
Y10.87
G2 X43.975 Y11.027 I0.264 J0.
G1 X44.591 Y10.198
G2 X44.619 Y10.15 I-0.212 J-0.157
G1 X45.332 Y8.586
X45.353 Y8.356
G2 X45.269 Y8.264 I-0.086 J-0.006
X45.18 Y8.35 I-0.003 J0.086
G1 Z-4. F500.
Y12.851 F1000.
G2 X45.499 Y13.17 I0.319 J0.
G1 X46.501
G2 X46.82 Y12.851 I0. J-0.319
G1 Y7.849
G2 X46.501 Y7.53 I-0.319 J0.
G1 X45.495
G2 X45.18 Y7.845 I0. J0.315
G1 Y8.35
G3 X44.34 Y9.61 I-1.365 J0.
G2 X43.5 Y10.87 I0.525 J1.26
G1 Y14.85
X48.5
Y5.85
X43.5
Y10.87
G2 X43.975 Y11.027 I0.264 J0.
G1 X44.591 Y10.198
G2 X44.619 Y10.15 I-0.212 J-0.157
G1 X45.332 Y8.586
X45.353 Y8.356
G2 X45.269 Y8.264 I-0.086 J-0.006
X45.18 Y8.35 I-0.003 J0.086
G1 Z-6. F500.
Y12.851 F1000.
G2 X45.499 Y13.17 I0.319 J0.
G1 X46.501
G2 X46.82 Y12.851 I0. J-0.319
G1 Y7.849
G2 X46.501 Y7.53 I-0.319 J0.
G1 X45.495
G2 X45.18 Y7.845 I0. J0.315
G1 Y8.35
G3 X44.34 Y9.61 I-1.365 J0.
G2 X43.5 Y10.87 I0.525 J1.26
G1 Y14.85
X48.5
Y5.85
X43.5
Y10.87
G2 X43.975 Y11.027 I0.264 J0.
G1 X44.591 Y10.198
G2 X44.619 Y10.15 I-0.212 J-0.157
G1 X45.332 Y8.586
X45.353 Y8.356
G2 X45.269 Y8.264 I-0.086 J-0.006
X45.18 Y8.35 I-0.003 J0.086
G1 Z-8. F500.
Y12.851 F1000.
G2 X45.499 Y13.17 I0.319 J0.
G1 X46.501
G2 X46.82 Y12.851 I0. J-0.319
G1 Y7.849
G2 X46.501 Y7.53 I-0.319 J0.
G1 X45.495
G2 X45.18 Y7.845 I0. J0.315
G1 Y8.35
G3 X44.34 Y9.61 I-1.365 J0.
G2 X43.5 Y10.87 I0.525 J1.26
G1 Y14.85
X48.5
Y5.85
X43.5
Y10.87
G2 X43.975 Y11.027 I0.264 J0.
G1 X44.591 Y10.198
G2 X44.619 Y10.15 I-0.212 J-0.157
G1 X45.332 Y8.586
X45.353 Y8.356
G2 X45.269 Y8.264 I-0.086 J-0.006
X45.18 Y8.35 I-0.003 J0.086
G1 Z-10. F500.
Y12.851 F1000.
G2 X45.499 Y13.17 I0.319 J0.
G1 X46.501
G2 X46.82 Y12.851 I0. J-0.319
G1 Y7.849
G2 X46.501 Y7.53 I-0.319 J0.
G1 X45.495
G2 X45.18 Y7.845 I0. J0.315
G1 Y8.35
G3 X44.34 Y9.61 I-1.365 J0.
G2 X43.5 Y10.87 I0.525 J1.26
G1 Y14.85
X48.5
Y5.85
X43.5
Y10.87
G2 X43.975 Y11.027 I0.264 J0.
G1 X44.591 Y10.198
G2 X44.619 Y10.15 I-0.212 J-0.157
G1 X45.332 Y8.586
X45.353 Y8.356
G2 X45.269 Y8.264 I-0.086 J-0.006
X45.18 Y8.35 I-0.003 J0.086
G1 Z-12. F500.
Y12.851 F1000.
G2 X45.499 Y13.17 I0.319 J0.
G1 X46.501
G2 X46.82 Y12.851 I0. J-0.319
G1 Y7.849
G2 X46.501 Y7.53 I-0.319 J0.
G1 X45.495
G2 X45.18 Y7.845 I0. J0.315
G1 Y8.35
G3 X44.34 Y9.61 I-1.365 J0.
G2 X43.5 Y10.87 I0.525 J1.26
G1 Y14.85
X48.5
Y5.85
X43.5
Y10.87
G2 X43.975 Y11.027 I0.264 J0.
G1 X44.591 Y10.198
G2 X44.619 Y10.15 I-0.212 J-0.157
G1 X45.332 Y8.586
X45.353 Y8.356
G2 X45.269 Y8.264 I-0.086 J-0.006
X45.18 Y8.35 I-0.003 J0.086
G1 Z-14. F500.
Y12.851 F1000.
G2 X45.499 Y13.17 I0.319 J0.
G1 X46.501
G2 X46.82 Y12.851 I0. J-0.319
G1 Y7.849
G2 X46.501 Y7.53 I-0.319 J0.
G1 X45.495
G2 X45.18 Y7.845 I0. J0.315
G1 Y8.35
G3 X44.34 Y9.61 I-1.365 J0.
G2 X43.5 Y10.87 I0.525 J1.26
G1 Y14.85
X48.5
Y5.85
X43.5
Y10.87
G2 X43.975 Y11.027 I0.264 J0.
G1 X44.591 Y10.198
G2 X44.619 Y10.15 I-0.212 J-0.157
G1 X45.332 Y8.586
X45.353 Y8.356
G2 X45.269 Y8.264 I-0.086 J-0.006
X45.18 Y8.35 I-0.003 J0.086
G1 Z-15. F500.
Y12.851 F1000.
G2 X45.499 Y13.17 I0.319 J0.
G1 X46.501
G2 X46.82 Y12.851 I0. J-0.319
G1 Y7.849
G2 X46.501 Y7.53 I-0.319 J0.
G1 X45.495
G2 X45.18 Y7.845 I0. J0.315
G1 Y8.35
G3 X44.34 Y9.61 I-1.365 J0.
G2 X43.5 Y10.87 I0.525 J1.26
G1 Y14.85
X48.5
Y5.85
X43.5
Y10.87
X44.07 Z-14.943
G0 Z5.

M9
M30
