(1)
(TRAVEL EGUITAR VERTICAL AUDIO JACK)
(T1  D=8. CR=0. - ZMIN=-55. - FLAT END MILL)
G0 G90 G94 G17
G21

(2D POCKET9)
M5
M9
T1
M3 S14000
G54
M9
G0 X23.92 Y8.91
Z3.
G1 Z-3. F600.
G2 X26.08 Y11.79 I1.08 J1.44 F1000.
X23.92 Y8.91 I-1.08 J-1.44
G1 Z-6. F600.
G2 X26.08 Y11.79 I1.08 J1.44 F1000.
X23.92 Y8.91 I-1.08 J-1.44
G1 Z-9. F600.
G2 X26.08 Y11.79 I1.08 J1.44 F1000.
X23.92 Y8.91 I-1.08 J-1.44
G1 Z-12. F600.
G2 X26.08 Y11.79 I1.08 J1.44 F1000.
X23.92 Y8.91 I-1.08 J-1.44
G1 Z-15. F600.
G2 X26.08 Y11.79 I1.08 J1.44 F1000.
X23.92 Y8.91 I-1.08 J-1.44
G1 Z-18. F600.
G2 X26.08 Y11.79 I1.08 J1.44 F1000.
X23.92 Y8.91 I-1.08 J-1.44
G1 Z-21. F600.
G2 X26.08 Y11.79 I1.08 J1.44 F1000.
X23.92 Y8.91 I-1.08 J-1.44
G0 Z3
