(1)
(TRAVEL EGUITAR VERTICAL AUDIO JACK)
(T1  D=8. CR=0. - ZMIN=-55. - FLAT END MILL)
G0 G90 G94 G17
G21

(2D POCKET9)
M5
M9
T1
M3 S14000
G54
M9
Z3.
G1 Z-24. F600.
G2 X26.08 Y11.79 I1.08 J1.44 F1000.
X23.92 Y8.91 I-1.08 J-1.44
G1 Z-27. F600.
G2 X26.08 Y11.79 I1.08 J1.44 F1000.
X23.92 Y8.91 I-1.08 J-1.44
G1 Z-30. F600.
G2 X26.08 Y11.79 I1.08 J1.44 F1000.
X23.92 Y8.91 I-1.08 J-1.44
G1 Z-33. F600.
G2 X26.08 Y11.79 I1.08 J1.44 F1000.
X23.92 Y8.91 I-1.08 J-1.44
G1 Z-36. F600.
G2 X26.08 Y11.79 I1.08 J1.44 F1000.
X23.92 Y8.91 I-1.08 J-1.44
G1 Z-39. F600.
G2 X26.08 Y11.79 I1.08 J1.44 F1000.
X23.92 Y8.91 I-1.08 J-1.44
G0 Z3
