(1)
(TRAVEL EGUITAR BTM 1)
(T3  D=3. CR=0. - ZMIN=0. - FLAT END MILL)
G0 G90 G94 G17
G21

(2D CONTOUR8)
M5
M9
T3
M3 S16000
G54
M9
Z25.7
G0 X50.5 Y89.147
G1 Z23.7 F1000.
Z23.2
Y126.5 Z20.588 F750.
X68.5 Z19.329
Y117.5 Z18.7
Y59.5 F1000.
X50.5
Y126.5
X68.5
Y117.5
Y88.899 Z16.7 F750.
Y59.5 F1000.
X50.5
Y126.5
X68.5
Y88.899
Y60.297 Z14.7 F750.
Y59.5 F1000.
X50.5
Y126.5
X68.5
Y60.297
Y59.5 Z14.644 F750.
X50.5 Z13.386
Y69.304 Z12.7
Y126.5 F1000.
X68.5
Y59.5
X50.5
Y69.304
Y97.905 Z10.7 F750.
Y126.5 F1000.
X68.5
Y59.5
X50.5
Y97.905
Y126.5 Z8.7 F750.
X50.507
X68.5 F1000.
Y59.5
X50.5
Y126.5
X50.507
X68.5 Z7.442 F750.
Y115.892 Z6.7
Y59.5 F1000.
X50.5
Y126.5
X68.5
Y115.892
Y87.291 Z4.7 F750.
Y59.5 F1000.
X50.5
Y126.5
X68.5
Y87.291
Y59.5 Z2.757 F750.
X67.689 Z2.7
X59.219 F1000.
X58.969 Z3.
X55.969
X55.719 Z2.7 F500.
X50.5 F1000.
Y94.236
Y94.486 Z3.
Y97.486
Y97.736 Z2.7 F500.
Y126.5 F1000.
X55.829
X56.079 Z3.
X59.079
X59.329 Z2.7 F500.
X68.5 F1000.
Y96.517
Y96.267 Z3.
Y93.267
Y93.017 Z2.7 F500.
Y59.5 F1000.
X67.689
X59.686 Z2.14 F750.
X58.969 Z3.
X55.969
X54.978 Z1.811 F500.
X50.5 Z1.498 F750.
Y70.912 Z0.7
Y92.57 F1000.
Y94.486 Z3.
Y97.486
Y99.403 Z0.7 F500.
Y126.5 F1000.
X54.163
X56.079 Z3.
X59.079
X60.996 Z0.7 F500.
X68.5 F1000.
Y98.184
Y96.267 Z3.
Y93.267
Y91.351 Z0.7 F500.
Y59.5 F1000.
X60.886
X58.969 Z3.
X55.969
X54.052 Z0.7 F500.
X50.5 F1000.
Y70.912
Y80.922 Z0. F750.
Y91.986 F1000.
Y94.486 Z3.
Y97.486
Y99.986 Z0. F500.
Y126.5 F1000.
X53.579
X56.079 Z3.
X59.079
X61.579 Z0. F500.
X68.5 F1000.
Y98.767
Y96.267 Z3.
Y93.267
Y90.767 Z0. F500.
Y59.5 F1000.
X61.469
X58.969 Z3.
X55.969
X53.469 Z0. F500.
X50.5 F1000.
Y80.922
G0 Z25.7

(2D POCKET11)
M9
G0 X57.371 Y126.591
G1 Z25.7 F1000.
Z21.7
Z18.7
X57.377 Y126.601
G2 X61.618 Y126.607 I2.123 J-1.491
X61.453 Y126.291 I-0.163 J-0.115
G1 X55.082 Y126.343
G2 X54.894 Y126.604 I0.002 J0.2
X64.108 Y126.601 I4.606 J-1.495
X63.917 Y126.339 I-0.19 J-0.062
G1 X52.746 Y126.347
G2 X52.554 Y126.6 I0. J0.2
G1 X52.663 Y126.992
G2 X66.337 I6.837 J-1.882
G1 X66.445 Y126.602
G2 X66.253 Y126.349 I-0.193 J-0.053
G1 X50.365 Y126.355
G2 X50.172 Y126.608 I0. J0.2
G1 X50.446 Y127.602
G2 X68.554 I9.054 J-2.493
G1 X68.826 Y126.612
G2 X68.635 Y126.359 I-0.193 J-0.053
G1 X57.536 Y126.276
G2 X57.371 Y126.591 I-0.001 J0.2
G1 Z16.7
X57.377 Y126.601
G2 X61.618 Y126.607 I2.123 J-1.491
X61.453 Y126.291 I-0.163 J-0.115
G1 X55.082 Y126.343
G2 X54.894 Y126.604 I0.002 J0.2
X64.108 Y126.601 I4.606 J-1.495
X63.917 Y126.339 I-0.19 J-0.062
G1 X52.746 Y126.347
G2 X52.554 Y126.6 I0. J0.2
G1 X52.663 Y126.992
G2 X66.337 I6.837 J-1.882
G1 X66.445 Y126.602
G2 X66.253 Y126.349 I-0.193 J-0.053
G1 X50.365 Y126.355
G2 X50.172 Y126.608 I0. J0.2
G1 X50.446 Y127.602
G2 X68.554 I9.054 J-2.493
G1 X68.826 Y126.612
G2 X68.635 Y126.359 I-0.193 J-0.053
G1 X57.536 Y126.276
G2 X57.371 Y126.591 I-0.001 J0.2
G1 Z14.7
X57.377 Y126.601
G2 X61.618 Y126.607 I2.123 J-1.491
X61.453 Y126.291 I-0.163 J-0.115
G1 X55.082 Y126.343
G2 X54.894 Y126.604 I0.002 J0.2
X64.108 Y126.601 I4.606 J-1.495
X63.917 Y126.339 I-0.19 J-0.062
G1 X52.746 Y126.347
G2 X52.554 Y126.6 I0. J0.2
G1 X52.663 Y126.992
G2 X66.337 I6.837 J-1.882
G1 X66.445 Y126.602
G2 X66.253 Y126.349 I-0.193 J-0.053
G1 X50.365 Y126.355
G2 X50.172 Y126.608 I0. J0.2
G1 X50.446 Y127.602
G2 X68.554 I9.054 J-2.493
G1 X68.826 Y126.612
G2 X68.635 Y126.359 I-0.193 J-0.053
G1 X57.536 Y126.276
G2 X57.371 Y126.591 I-0.001 J0.2
G1 Z13.
X57.377 Y126.601
G2 X61.618 Y126.607 I2.123 J-1.491
X61.453 Y126.291 I-0.163 J-0.115
G1 X55.082 Y126.343
G2 X54.894 Y126.604 I0.002 J0.2
X64.108 Y126.601 I4.606 J-1.495
X63.917 Y126.339 I-0.19 J-0.062
G1 X52.746 Y126.347
G2 X52.554 Y126.6 I0. J0.2
G1 X52.663 Y126.992
G2 X66.337 I6.837 J-1.882
G1 X66.445 Y126.602
G2 X66.253 Y126.349 I-0.193 J-0.053
G1 X50.365 Y126.355
G2 X50.172 Y126.608 I0. J0.2
G1 X50.446 Y127.602
G2 X68.554 I9.054 J-2.493
G1 X68.826 Y126.612
X68.277 Y126.461 Z13.057
G0 Z25.7
X50.4 Y86.755
G1 Z21.7 F1000.
Z18.7
X50.399 Y86.766
G2 X50.298 Y89.004 I24.716 J2.237
G1 Y96.996
G2 X50.399 Y99.232 I24.817 J0.
X50.798 Y99.214 I0.199 J-0.018
G1 X50.794 Y72.537
G2 X50.398 Y72.502 I-0.2 J0.
G1 X48.281 Y84.472
G2 X47.902 Y88.793 I24.438 J4.322
G1 Y97.207
G2 X48.281 Y101.528 I24.817 J0.
G1 X50.4 Y113.51
X50.402 Y113.521
G0 Z25.7
X50.403 Y58.686
G1 Z21.7 F500.
Z18.7 F1000.
G2 X50.398 Y58.709 I0.289 J0.075
G1 X45.5 Y86.405
Y99.595
X50.398 Y127.294
G2 X50.795 Y127.26 I0.197 J-0.035
G1 X50.8 Y86.773
G2 X50.4 Y86.755 I-0.2 J0.
G1 Z16.7
X50.399 Y86.766
G2 X50.298 Y89.004 I24.716 J2.237
G1 Y96.996
G2 X50.399 Y99.232 I24.817 J0.
X50.798 Y99.214 I0.199 J-0.018
G1 X50.794 Y72.537
G2 X50.398 Y72.502 I-0.2 J0.
G1 X48.281 Y84.472
G2 X47.902 Y88.793 I24.438 J4.322
G1 Y97.207
G2 X48.281 Y101.528 I24.817 J0.
G1 X50.4 Y113.51
X50.402 Y113.521
G0 Z25.7
X50.403 Y58.686
G1 Z19.7 F500.
Z16.7 F1000.
G2 X50.398 Y58.709 I0.289 J0.075
G1 X45.5 Y86.405
Y99.595
X50.398 Y127.294
G2 X50.795 Y127.26 I0.197 J-0.035
G1 X50.8 Y86.773
G2 X50.4 Y86.755 I-0.2 J0.
G1 Z14.7
X50.399 Y86.766
G2 X50.298 Y89.004 I24.716 J2.237
G1 Y96.996
G2 X50.399 Y99.232 I24.817 J0.
X50.798 Y99.214 I0.199 J-0.018
G1 X50.794 Y72.537
G2 X50.398 Y72.502 I-0.2 J0.
G1 X48.281 Y84.472
G2 X47.902 Y88.793 I24.438 J4.322
G1 Y97.207
G2 X48.281 Y101.528 I24.817 J0.
G1 X50.4 Y113.51
X50.402 Y113.521
G0 Z25.7
X50.403 Y58.686
G1 Z17.7 F500.
Z14.7 F1000.
G2 X50.398 Y58.709 I0.289 J0.075
G1 X45.5 Y86.405
Y99.595
X50.398 Y127.294
G2 X50.795 Y127.26 I0.197 J-0.035
G1 X50.8 Y86.773
G2 X50.4 Y86.755 I-0.2 J0.
G1 Z13.
X50.399 Y86.766
G2 X50.298 Y89.004 I24.716 J2.237
G1 Y96.996
G2 X50.399 Y99.232 I24.817 J0.
X50.798 Y99.214 I0.199 J-0.018
G1 X50.794 Y72.537
G2 X50.398 Y72.502 I-0.2 J0.
G1 X48.281 Y84.472
G2 X47.902 Y88.793 I24.438 J4.322
G1 Y97.207
G2 X48.281 Y101.528 I24.817 J0.
G1 X50.4 Y113.51
X50.402 Y113.521
G0 Z25.7
X50.403 Y58.686
G1 Z15.7 F500.
Z13. F1000.
G2 X50.398 Y58.709 I0.289 J0.075
G1 X45.5 Y86.405
Y99.595
X50.398 Y127.294
X50.96 Y127.195 Z13.057
G0 Z25.7
X61.629 Y59.409
G1 Z21.7 F1000.
Z18.7
X61.623 Y59.399
G2 X57.382 Y59.393 I-2.123 J1.491
X57.547 Y59.709 I0.163 J0.115
G1 X63.918 Y59.657
G2 X64.106 Y59.396 I-0.002 J-0.2
X54.892 Y59.399 I-4.606 J1.495
X55.083 Y59.661 I0.19 J0.062
G1 X66.253 Y59.653
G2 X66.446 Y59.399 I0. J-0.2
G1 X66.337 Y59.008
G2 X52.663 I-6.837 J1.882
G1 X52.555 Y59.397
G2 X52.747 Y59.651 I0.193 J0.053
G1 X68.635 Y59.646
G2 X68.828 Y59.393 I0. J-0.2
G1 X68.554 Y58.398
G2 X50.446 I-9.054 J2.492
G1 X50.174 Y59.388
G2 X50.365 Y59.641 I0.193 J0.053
G1 X61.464 Y59.724
G2 X61.629 Y59.409 I0.001 J-0.2
G1 Z16.7
X61.623 Y59.399
G2 X57.382 Y59.393 I-2.123 J1.491
X57.547 Y59.709 I0.163 J0.115
G1 X63.918 Y59.657
G2 X64.106 Y59.396 I-0.002 J-0.2
X54.892 Y59.399 I-4.606 J1.495
X55.083 Y59.661 I0.19 J0.062
G1 X66.253 Y59.653
G2 X66.446 Y59.399 I0. J-0.2
G1 X66.337 Y59.008
G2 X52.663 I-6.837 J1.882
G1 X52.555 Y59.397
G2 X52.747 Y59.651 I0.193 J0.053
G1 X68.635 Y59.646
G2 X68.828 Y59.393 I0. J-0.2
G1 X68.554 Y58.398
G2 X50.446 I-9.054 J2.492
G1 X50.174 Y59.388
G2 X50.365 Y59.641 I0.193 J0.053
G1 X61.464 Y59.724
G2 X61.629 Y59.409 I0.001 J-0.2
G1 Z14.7
X61.623 Y59.399
G2 X57.382 Y59.393 I-2.123 J1.491
X57.547 Y59.709 I0.163 J0.115
G1 X63.918 Y59.657
G2 X64.106 Y59.396 I-0.002 J-0.2
X54.892 Y59.399 I-4.606 J1.495
X55.083 Y59.661 I0.19 J0.062
G1 X66.253 Y59.653
G2 X66.446 Y59.399 I0. J-0.2
G1 X66.337 Y59.008
G2 X52.663 I-6.837 J1.882
G1 X52.555 Y59.397
G2 X52.747 Y59.651 I0.193 J0.053
G1 X68.635 Y59.646
G2 X68.828 Y59.393 I0. J-0.2
G1 X68.554 Y58.398
G2 X50.446 I-9.054 J2.492
G1 X50.174 Y59.388
G2 X50.365 Y59.641 I0.193 J0.053
G1 X61.464 Y59.724
G2 X61.629 Y59.409 I0.001 J-0.2
G1 Z13.
X61.623 Y59.399
G2 X57.382 Y59.393 I-2.123 J1.491
X57.547 Y59.709 I0.163 J0.115
G1 X63.918 Y59.657
G2 X64.106 Y59.396 I-0.002 J-0.2
X54.892 Y59.399 I-4.606 J1.495
X55.083 Y59.661 I0.19 J0.062
G1 X66.253 Y59.653
G2 X66.446 Y59.399 I0. J-0.2
G1 X66.337 Y59.008
G2 X52.663 I-6.837 J1.882
G1 X52.555 Y59.397
G2 X52.747 Y59.651 I0.193 J0.053
G1 X68.635 Y59.646
G2 X68.828 Y59.393 I0. J-0.2
G1 X68.554 Y58.398
G2 X50.446 I-9.054 J2.492
G1 X50.174 Y59.388
X50.723 Y59.539 Z13.057
G0 Z25.7

(2D POCKET12)
M9
G0 X45.501 Y144.42
G1 Z25.7 F1000.
Z21.7
Z18.7
G3 X45.5 Y144.397 I0.298 J-0.023
G1 Y105.893
X47.15 Y126.117
G2 X47.5 Y128.196 I12.35 J-1.007
G1 Y144.399
X47.499 Y144.422
Z16.7
G2 X47.5 Y144.399 I-0.298 J-0.023
G1 Y128.196
G3 X47.15 Y126.117 I12. J-3.086
G1 X45.5 Y105.893
Y144.397
X45.501 Y144.42
Z15.7
G3 X45.5 Y144.397 I0.298 J-0.023
G1 Y105.893
X47.15 Y126.117
G2 X47.5 Y128.196 I12.35 J-1.007
G1 Y144.399
X46.93 Z15.757
Z25.7
G0 X49. Y146.902
G1 Z22.7 F1000.
Z18.7 F500.
X48.221 F1000.
G2 X47.902 Y147.221 I0. J0.319
G1 Y148.779
G2 X48.221 Y149.098 I0.319 J0.
G1 X54.779
G2 X55.098 Y148.779 I0. J-0.319
G1 Y147.221
G2 X54.779 Y146.902 I-0.319 J0.
G1 X49.
G3 X47.353 Y145.928 I0. J-1.879
G2 X45.5 Y146.404 I-0.865 J0.476
G1 Y151.5
X57.5
Y144.5
X45.5
Y146.404
G2 X45.661 Y146.554 I0.151 J0.
G1 X46.39 Y146.513
X48.747 Y147.099
X49.01 Y147.075
G2 X49. Y146.902 I-0.01 J-0.086
G1 Z16.7 F500.
X48.221 F1000.
G2 X47.902 Y147.221 I0. J0.319
G1 Y148.779
G2 X48.221 Y149.098 I0.319 J0.
G1 X54.779
G2 X55.098 Y148.779 I0. J-0.319
G1 Y147.221
G2 X54.779 Y146.902 I-0.319 J0.
G1 X49.
G3 X47.353 Y145.928 I0. J-1.879
G2 X45.5 Y146.404 I-0.865 J0.476
G1 Y151.5
X57.5
Y144.5
X45.5
Y146.404
G2 X45.661 Y146.554 I0.151 J0.
G1 X46.39 Y146.513
X48.747 Y147.099
X49.01 Y147.075
G2 X49. Y146.902 I-0.01 J-0.086
G1 Z14.7 F500.
X48.221 F1000.
G2 X47.902 Y147.221 I0. J0.319
G1 Y148.779
G2 X48.221 Y149.098 I0.319 J0.
G1 X54.779
G2 X55.098 Y148.779 I0. J-0.319
G1 Y147.221
G2 X54.779 Y146.902 I-0.319 J0.
G1 X49.
G3 X47.353 Y145.928 I0. J-1.879
G2 X45.5 Y146.404 I-0.865 J0.476
G1 Y151.5
X57.5
Y144.5
X45.5
Y146.404
G2 X45.661 Y146.554 I0.151 J0.
G1 X46.39 Y146.513
X48.747 Y147.099
X49.01 Y147.075
G2 X49. Y146.902 I-0.01 J-0.086
G1 Z12.7 F500.
X48.221 F1000.
G2 X47.902 Y147.221 I0. J0.319
G1 Y148.779
G2 X48.221 Y149.098 I0.319 J0.
G1 X54.779
G2 X55.098 Y148.779 I0. J-0.319
G1 Y147.221
G2 X54.779 Y146.902 I-0.319 J0.
G1 X49.
G3 X47.353 Y145.928 I0. J-1.879
G2 X45.5 Y146.404 I-0.865 J0.476
G1 Y151.5
X57.5
Y144.5
X45.5
Y146.404
G2 X45.661 Y146.554 I0.151 J0.
G1 X46.39 Y146.513
X48.747 Y147.099
X49.01 Y147.075
G2 X49. Y146.902 I-0.01 J-0.086
G1 Z11.525 F500.
X48.221 F1000.
G2 X47.902 Y147.221 I0. J0.319
G1 Y148.779
G2 X48.221 Y149.098 I0.319 J0.
G1 X54.779
G2 X55.098 Y148.779 I0. J-0.319
G1 Y147.221
G2 X54.779 Y146.902 I-0.319 J0.
G1 X49.
G3 X47.353 Y145.928 I0. J-1.879
G2 X45.5 Y146.404 I-0.865 J0.476
G1 Y151.5
X57.5
Y144.5
X45.5
Y146.404
G2 X45.661 Y146.554 I0.151 J0.
G1 X46.39 Y146.513
X48.747 Y147.099
X49.01 Y147.075
G2 X49. Y146.902 I-0.01 J-0.086
G1 Z10.35 F500.
X48.221 F1000.
G2 X47.902 Y147.221 I0. J0.319
G1 Y148.779
G2 X48.221 Y149.098 I0.319 J0.
G1 X54.779
G2 X55.098 Y148.779 I0. J-0.319
G1 Y147.221
G2 X54.779 Y146.902 I-0.319 J0.
G1 X49.
G3 X47.353 Y145.928 I0. J-1.879
G2 X45.5 Y146.404 I-0.865 J0.476
G1 Y151.5
X57.5
Y144.5
X45.5
Y146.404
X46.07 Z10.407
Z25.7

(2D CONTOUR2)
M9
G0 X117.353 Y124.5
G1 Z25.7 F1000.
Z23.2
X93.5 Z21.532 F750.
Y151.5 Z19.644
X107. Z18.7
X195.5 F1000.
Y124.5
X93.5
Y151.5
X107.
X135.601 Z16.7 F750.
X195.5 F1000.
Y124.5
X93.5
Y151.5
X135.601
X164.203 Z14.7 F750.
X195.5 F1000.
Y124.5
X93.5
Y151.5
X164.203
X192.804 Z12.7 F750.
X195.5 F1000.
Y124.5
X93.5
Y151.5
X192.804
X195.5 Z12.511 F750.
Y125.595 Z10.7
Y124.5 F1000.
X93.5
Y151.5
X195.5
Y125.595
Y124.5 Z10.623 F750.
X167.993 Z8.7
X93.5 F1000.
Y151.5
X195.5
Y124.5
X167.993
X139.392 Z6.7 F750.
X93.5 F1000.
Y151.5
X195.5
Y124.5
X139.392
X110.791 Z4.7 F750.
X93.5 F1000.
Y151.5
X195.5
Y124.5
X110.791
X93.5 Z3.491 F750.
Y135.811 Z2.7
Y151.5 F1000.
X195.5
Y124.5
X93.5
Y135.811
Y151.5 Z1.603 F750.
X104.974 Z0.801
Z2.
X106.412
X112.974 F1000.
Z0.7 F500.
X195.5 F1000.
Y124.5
X186.327
Z2.
X178.327
Z0.7 F500.
X93.5 F1000.
Y151.5
X104.974
Z2.
X106.412
X112.974 F750.
Z0.241 F500.
X116.422 Z0. F750.
X195.5 F1000.
Y124.5
X186.327
Z2.
X178.327
Z0. F500.
X93.5 F1000.
Y151.5
X104.974
Z2.
X112.974
Z0. F500.
X116.422 F1000.
G0 Z25.7
X144.353 Y34.5
G1 Z23.2 F1000.
X93.5 Z19.644 F750.
Y48. Z18.7
Y61.5 F1000.
X195.5
Y34.5
X93.5
Y48.
Y61.5 Z17.756 F750.
X108.601 Z16.7
X195.5 F1000.
Y34.5
X93.5
Y61.5
X108.601
X137.203 Z14.7 F750.
X195.5 F1000.
Y34.5
X93.5
Y61.5
X137.203
X165.804 Z12.7 F750.
X195.5 F1000.
Y34.5
X93.5
Y61.5
X165.804
X194.405 Z10.7 F750.
X195.5 F1000.
Y34.5
X93.5
Y61.5
X194.405
X195.5 Z10.623 F750.
Y34.5 Z8.735
X194.993 Z8.7
X93.5 F1000.
Y61.5
X195.5
Y34.5
X194.993
X166.392 Z6.7 F750.
X93.5 F1000.
Y61.5
X195.5
Y34.5
X166.392
X137.791 Z4.7 F750.
X93.5 F1000.
Y61.5
X195.5
Y34.5
X137.791
X109.189 Z2.7 F750.
X93.5 F1000.
Y61.5
X195.5
Y34.5
X109.189
X93.5 Z1.603 F750.
Y47.412 Z0.7
Y61.5 F1000.
X104.433
Z2.
X112.433
Z0.7 F500.
X195.5 F1000.
Y34.5
X184.169
Z2.
X176.169
Z0.7 F500.
X93.5 F1000.
Y47.412
Y57.422 Z0. F750.
Y61.5 F1000.
X104.433
Z2.
X112.433
Z0. F500.
X195.5 F1000.
Y34.5
X184.169
Z2.
X176.169
Z0. F500.
X93.5 F1000.
Y57.422
G0 Z25.7

(2D POCKET13)
M9
G0 X93.407 Y61.202
G1 Z25.7 F1000.
Z21.7
Z18.7
X93.395
X83.618
G3 X83.298 Y60.882 I0. J-0.319
G1 Y59.118
G3 X83.618 Y58.798 I0.319 J0.
G1 X93.388
X93.411
Z25.7
G0 X195.593
G1 Z21.7 F500.
Z18.7 F1000.
X195.605
X205.382
G3 X205.702 Y59.118 I0. J0.319
G1 Y60.882
G3 X205.382 Y61.202 I-0.319 J0.
G1 X195.612
G3 X195.412 Y61.002 I0. J-0.2
G1 Y56.602
G3 X195.612 Y56.402 I0.2 J0.
G1 X207.779
G3 X208.098 Y56.721 I0. J0.319
G1 Y63.279
G3 X207.779 Y63.598 I-0.319 J0.
G1 X81.221
G3 X80.902 Y63.279 I0. J-0.319
G1 Y56.721
G3 X81.221 Y56.402 I0.319 J0.
G1 X93.395
G2 X93.595 Y56.201 I0. J-0.2
G1 X93.586 Y54.199
G2 X93.386 Y54. I-0.2 J0.001
G1 X78.5
Y66.
X210.5
Y54.
X195.603
G2 X195.403 Y54.2 I0. J0.2
G1 X195.393 Y58.598
G2 X195.593 Y58.798 I0.2 J0.
G1 Z16.7
X195.605
X205.382
G3 X205.702 Y59.118 I0. J0.319
G1 Y60.882
G3 X205.382 Y61.202 I-0.319 J0.
G1 X195.612
X195.589
Z25.7
G0 X93.407
G1 Z19.7 F500.
Z16.7 F1000.
X93.395
X83.618
G3 X83.298 Y60.882 I0. J-0.319
G1 Y59.118
G3 X83.618 Y58.798 I0.319 J0.
G1 X93.388
G2 X93.588 Y58.599 I0. J-0.2
G1 X93.595 Y56.602
G2 X93.395 Y56.402 I-0.2 J-0.001
G1 X81.221
G2 X80.902 Y56.721 I0. J0.319
G1 Y63.279
G2 X81.221 Y63.598 I0.319 J0.
G1 X207.779
G2 X208.098 Y63.279 I0. J-0.319
G1 Y56.721
G2 X207.779 Y56.402 I-0.319 J0.
G1 X195.612
G3 X195.412 Y56.203 I0. J-0.2
G1 X195.403 Y54.201
G3 X195.603 Y54. I0.2 J-0.001
G1 X210.5
Y66.
X78.5
Y54.
X93.386
G3 X93.586 Y54.199 I0. J0.2
G1 X93.611 Y58.597
G3 X93.411 Y58.798 I-0.2 J0.001
G1 Z15.7
X93.388
X83.618
G2 X83.298 Y59.118 I0. J0.319
G1 Y60.882
G2 X83.618 Y61.202 I0.319 J0.
G1 X93.395
X93.407
Z25.7
G0 X195.589
G1 Z17.7 F500.
Z15.7 F1000.
X195.612
X205.382
G2 X205.702 Y60.882 I0. J-0.319
G1 Y59.118
G2 X205.382 Y58.798 I-0.319 J0.
G1 X195.605
G3 X195.405 Y58.598 I0. J-0.2
G1 X195.412 Y56.601
G3 X195.612 Y56.402 I0.2 J0.001
G1 X207.779
G3 X208.098 Y56.721 I0. J0.319
G1 Y63.279
G3 X207.779 Y63.598 I-0.319 J0.
G1 X81.221
G3 X80.902 Y63.279 I0. J-0.319
G1 Y56.721
G3 X81.221 Y56.402 I0.319 J0.
G1 X93.395
G2 X93.595 Y56.201 I0. J-0.2
G1 X93.586 Y54.199
G2 X93.386 Y54. I-0.2 J0.001
G1 X78.5
Y66.
X210.5
Y54.
X195.603
Y54.57 Z15.757
Z25.7
G0 X195.593 Y124.798
G1 Z21.7 F1000.
Z18.7
X195.605
X205.382
G3 X205.702 Y125.118 I0. J0.319
G1 Y126.882
G3 X205.382 Y127.202 I-0.319 J0.
G1 X195.612
X195.589
Z25.7
G0 X93.407
G1 Z21.7 F500.
Z18.7 F1000.
X93.395
X83.618
G3 X83.298 Y126.882 I0. J-0.319
G1 Y125.118
G3 X83.618 Y124.798 I0.319 J0.
G1 X93.388
G3 X93.588 Y124.998 I0. J0.2
G1 Y129.398
G3 X93.388 Y129.598 I-0.2 J0.
G1 X81.221
G3 X80.902 Y129.279 I0. J-0.319
G1 Y122.721
G3 X81.221 Y122.402 I0.319 J0.
G1 X207.779
G3 X208.098 Y122.721 I0. J0.319
G1 Y129.279
G3 X207.779 Y129.598 I-0.319 J0.
G1 X195.605
G2 X195.405 Y129.799 I0. J0.2
G1 X195.414 Y131.801
G2 X195.614 Y132. I0.2 J-0.001
G1 X210.5
Y120.
X78.5
Y132.
X93.397
G2 X93.597 Y131.8 I0. J-0.2
G1 X93.607 Y127.402
G2 X93.407 Y127.202 I-0.2 J0.
G1 Z16.7
X93.395
X83.618
G3 X83.298 Y126.882 I0. J-0.319
G1 Y125.118
G3 X83.618 Y124.798 I0.319 J0.
G1 X93.388
X93.411
Z25.7
G0 X195.593
G1 Z19.7 F500.
Z16.7 F1000.
X195.605
X205.382
G3 X205.702 Y125.118 I0. J0.319
G1 Y126.882
G3 X205.382 Y127.202 I-0.319 J0.
G1 X195.612
G2 X195.412 Y127.401 I0. J0.2
G1 X195.405 Y129.398
G2 X195.605 Y129.598 I0.2 J0.001
G1 X207.779
G2 X208.098 Y129.279 I0. J-0.319
G1 Y122.721
G2 X207.779 Y122.402 I-0.319 J0.
G1 X81.221
G2 X80.902 Y122.721 I0. J0.319
G1 Y129.279
G2 X81.221 Y129.598 I0.319 J0.
G1 X93.388
G3 X93.588 Y129.797 I0. J0.2
G1 X93.597 Y131.799
G3 X93.397 Y132. I-0.2 J0.001
G1 X78.5
Y120.
X210.5
Y132.
X195.614
G3 X195.414 Y131.801 I0. J-0.2
G1 X195.389 Y127.403
G3 X195.589 Y127.202 I0.2 J-0.001
G1 Z15.7
X195.612
X205.382
G2 X205.702 Y126.882 I0. J-0.319
G1 Y125.118
G2 X205.382 Y124.798 I-0.319 J0.
G1 X195.605
X195.593
Z25.7
G0 X93.411
G1 Z17.7 F500.
Z15.7 F1000.
X93.388
X83.618
G2 X83.298 Y125.118 I0. J0.319
G1 Y126.882
G2 X83.618 Y127.202 I0.319 J0.
G1 X93.395
G3 X93.595 Y127.402 I0. J0.2
G1 X93.588 Y129.399
G3 X93.388 Y129.598 I-0.2 J-0.001
G1 X81.221
G3 X80.902 Y129.279 I0. J-0.319
G1 Y122.721
G3 X81.221 Y122.402 I0.319 J0.
G1 X207.779
G3 X208.098 Y122.721 I0. J0.319
G1 Y129.279
G3 X207.779 Y129.598 I-0.319 J0.
G1 X195.605
G2 X195.405 Y129.799 I0. J0.2
G1 X195.414 Y131.801
G2 X195.614 Y132. I0.2 J-0.001
G1 X210.5
Y120.
X78.5
Y132.
X93.397
Y131.43 Z15.757
Z25.7

(POCKET18)
M9
G0 X694.236 Y94.346
Z25.7
Z23.7
G1 Z19. F500.
G2 X694.224 Y94.354 Z18.907 I0.162 J0.252
X694.191 Y94.381 Z18.824 I0.174 J0.244
X694.148 Y94.432 Z18.757 I0.207 J0.217
X694.112 Y94.507 Z18.715 I0.25 J0.166
X694.098 Y94.599 Z18.7 I0.286 J0.091
G1 Y94.6 F1000.
G2 X694.221 Y94.928 I0.499 J0.
G1 X694.379 Y95.11
G2 X695.103 Y94.839 I0.311 J-0.271
G1 Y91.181
G2 X694.373 Y90.918 I-0.413 J0.
G1 X694.213 Y91.111
G2 X694.099 Y91.429 I0.385 J0.318
G1 X694.098 Y94.599
G3 X693.782 Y95.245 I-0.819 J0.
G2 X693.725 Y95.962 I0.299 J0.385
X694.255 Y96.463 I4.289 J-4.007
X695.378 Y97.333 I12.701 J-15.232
X696.153 Y96.936 I0.285 J-0.397
G1 Y89.075
G2 X695.373 Y88.648 I-0.507 J0.
X694.516 Y89.3 I3.552 J5.557
X693.749 Y90.056 I7.779 J8.654
X693.534 Y90.294 I11.499 J10.628
X693.325 Y90.538 I6.874 J6.096
X693.049 Y91.304 I0.927 J0.766
G1 Y94.715
G2 X693.282 Y95.427 I1.203 J0.
X693.725 Y95.962 I4.732 J-3.472
G3 X694.052 Y97.52 I-1.121 J1.048
G2 X694.573 Y99.024 I1.205 J0.424
X695.284 Y99.451 I9.392 J-14.833
G3 X696.248 Y100.007 I-46.487 J81.713
G2 X697.243 Y100.504 I4.307 J-7.366
X698.064 Y99.959 I0.23 J-0.545
G1 Y86.032
G2 X697.243 Y85.489 I-0.59 J0.
X694.285 Y87.111 I6.593 J15.533
X691.796 Y89.388 I6.879 J10.018
X691.138 Y91.216 I2.214 J1.829
G1 Y94.794
G2 X691.694 Y96.494 I2.871 J0.001
X693.333 Y98.162 I6.587 J-4.834
X694.573 Y99.024 I10.633 J-13.971
G3 X695.287 Y100.571 I-0.84 J1.326
G2 X696.083 Y102.079 I1.438 J0.205
X697.304 Y102.629 I8.311 J-16.835
G3 X698.259 Y103.029 I-20.207 J49.554
G2 X699.222 Y103.407 I6.431 J-14.938
X700.062 Y102.815 I0.211 J-0.592
G1 Y83.197
G2 X699.224 Y82.594 I-0.636 J0.
X694.386 Y84.697 I9.777 J29.104
X690.312 Y88.047 I6.577 J12.152
X689.14 Y91.304 I3.944 J3.259
G1 X689.139 Y94.713
G2 X690.13 Y97.741 I5.116 J0.001
X692.048 Y99.66 I7.223 J-5.3
X694.325 Y101.137 I13.803 J-18.784
X695.79 Y101.931 I19.996 J-35.149
X696.083 Y102.079 I8.603 J-16.687
G3 X696.988 Y103.565 I-0.72 J1.458
G2 X697.954 Y105.012 I1.527 J0.027
X698.88 Y105.374 I50.165 J-126.993
X701.236 Y106.201 I14.254 J-36.869
X702.096 Y105.57 I0.199 J-0.63
G1 Y80.428
G2 X701.251 Y79.803 I-0.654 J0.
X694.444 Y82.399 I15.955 J52.059
X688.67 Y86.841 I6.841 J14.866
X687.106 Y91.188 I5.262 J4.348
G1 X687.105 Y94.819
G2 X688.428 Y98.859 I6.826 J0.001
X692.107 Y102.219 I10.234 J-7.51
X696.56 Y104.453 I16.568 J-27.472
X697.954 Y105.012 I51.558 J-126.434
G3 X698.999 Y106.469 I-0.608 J1.54
G2 X700.071 Y107.906 I1.607 J-0.081
G3 X700.74 Y108.142 I-135.217 J383.602
G2 X703.298 Y108.917 I9.598 J-27.079
X704.154 Y108.25 I0.169 J-0.667
G1 Y77.747
G2 X703.29 Y77.087 I-0.684 J0.
X696.658 Y79.172 I23.84 J87.395
X690.512 Y82.424 I8.171 J22.874
X688.78 Y83.785 I18.212 J24.963
X687.231 Y85.351 I7.973 J9.434
X685.048 Y91.419 I7.345 J6.069
G1 X685.047 Y95.441
G2 X686.03 Y98.971 I6.826 J0.001
X691.398 Y104.181 I12.595 J-7.606
X698.217 Y107.257 I20.511 J-36.374
G3 X700.071 Y107.906 I-133.362 J384.251
X701.251 Y109.411 I-0.591 J1.678
G2 X702.485 Y110.871 I1.675 J-0.164
G1 X702.595 Y110.901
X703.446 Y111.116
X705.146 Y111.527
X706.25 Y111.739
Y74.256
X705.573 Y74.385
X703.44 Y74.885
X703.023 Y74.987
X700.893 Y75.568
X698.762 Y76.221
X696.942 Y76.833
X695.357 Y77.418
X694.677 Y77.685
X693.674 Y78.111
X692.768 Y78.532
X691.925 Y78.952
X691.165 Y79.374
X690.482 Y79.79
X689.818 Y80.215
X689.2 Y80.626
X687.744 Y81.788
X686.308 Y83.178
X685.023 Y84.734
X683.943 Y86.432
X683.114 Y88.296
X683.057 Y88.466
X682.946 Y88.839
X682.947 Y88.849
G3 X682.953 Y88.941 I-0.744 J0.092
G1 X682.951 Y97.019
G3 X682.939 Y97.152 I-0.75 J0.
G1 X682.937 Y97.161
X683.351 Y98.337
X683.941 Y99.566
X684.538 Y100.554
X684.695 Y100.793
X685.359 Y101.698
X685.632 Y102.038
X686.359 Y102.873
X687.193 Y103.71
X687.417 Y103.919
X688.242 Y104.638
X690.227 Y106.065
X691.202 Y106.627
X692. Y107.075
X692.835 Y107.493
X693.691 Y107.891
X694.943 Y108.419
X695.784 Y108.75
X697.488 Y109.358
X698.188 Y109.595
X700.042 Y110.18
X701.318 Y110.555
X702.485 Y110.871
G2 X702.673 Y110.708 I0.039 J-0.145
G1 X702.47 Y109.053
X696.275 Y87.575
X696.227 Y87.328
G2 X696.148 Y87.294 I-0.051 J0.01
G1 Z17. F500.
G2 X696.135 Y87.302 Z16.907 I0.162 J0.252
X696.103 Y87.329 Z16.824 I0.174 J0.244
X696.06 Y87.38 Z16.757 I0.207 J0.217
X696.024 Y87.455 Z16.715 I0.25 J0.166
X696.01 Y87.546 Z16.7 I0.286 J0.091
G1 Y98.443 F1000.
G2 X696.264 Y98.878 I0.499 J0.
G1 X696.271 Y98.882
G2 X697.015 Y98.446 I0.245 J-0.435
G1 Y87.541
G2 X696.292 Y87.094 I-0.499 J0.
G1 X696.286 Y87.097
G2 X696.01 Y87.544 I0.223 J0.447
G1 Y87.546
G3 X695.485 Y88.333 I-0.852 J0.
G2 X694.96 Y89.12 I0.328 J0.787
G1 Y98.645
G2 X695.574 Y99.694 I1.203 J0.
X696.397 Y100.123 I7.234 J-12.874
X697.243 Y100.504 I7.974 J-16.544
X698.064 Y99.959 I0.23 J-0.545
G1 Y86.032
G2 X697.243 Y85.489 I-0.59 J0.
X696.401 Y85.866 I9.367 J22.066
X695.58 Y86.286 I5.919 J12.575
X694.96 Y87.338 I0.583 J1.052
G1 Y89.12
G3 X693.961 Y90.619 I-1.624 J0.
G2 X692.962 Y92.118 I0.625 J1.499
G1 Y99.211
G2 X694.079 Y101.144 I2.231 J0.
X696.6 Y102.391 I11.158 J-19.375
X699.222 Y103.407 I20.221 J-48.279
X700.062 Y102.815 I0.211 J-0.592
G1 Y83.197
G2 X699.224 Y82.594 I-0.636 J0.
X696.985 Y83.436 I10.65 J31.703
X694.82 Y84.455 I10.387 J24.87
G3 X694.409 Y84.666 I-9.881 J-18.777
G2 X694.005 Y84.889 I2.42 J4.851
X692.962 Y86.748 I1.134 J1.858
G1 Y92.118
G3 X691.945 Y93.643 I-1.652 J0.
G2 X690.928 Y95.168 I0.635 J1.525
G1 Y100.2
G2 X691.946 Y102.185 I2.444 J0.
X694.186 Y103.455 I7.004 J-9.741
X696.56 Y104.453 I48.474 J-112.05
X698.88 Y105.374 I51.558 J-126.434
X701.236 Y106.201 I14.254 J-36.869
X702.096 Y105.57 I0.199 J-0.63
G1 Y80.428
G2 X701.251 Y79.803 I-0.654 J0.
X696.517 Y81.423 I22.751 J74.235
X692.066 Y83.709 I7.88 J20.819
X690.928 Y85.832 I1.412 J2.123
G1 Y95.168
G3 X689.899 Y96.712 I-1.672 J0.
G2 X688.87 Y98.256 I0.643 J1.544
G1 Y101.093
G2 X690.019 Y103.335 I2.762 J0.
X693.976 Y105.593 I12.714 J-17.683
X698.217 Y107.257 I22.975 J-52.315
G3 X700.74 Y108.142 I-133.362 J384.251
G2 X703.298 Y108.917 I9.598 J-27.079
X704.154 Y108.25 I0.169 J-0.667
G1 Y77.747
G2 X703.29 Y77.087 I-0.684 J0.
X698.017 Y78.714 I22.003 J80.659
X692.952 Y80.905 I11.848 J34.33
X691.401 Y81.741 I41.346 J78.568
X689.936 Y82.72 I5.037 J9.127
X688.87 Y84.934 I1.767 J2.215
G1 Y98.256
G3 X687.822 Y99.828 I-1.703 J0.
G2 X686.774 Y101.399 I0.655 J1.572
G1 Y103.293
X687.192 Y103.71
X687.417 Y103.919
X688.242 Y104.638
X690.227 Y106.065
X691.202 Y106.627
X692. Y107.075
X692.835 Y107.493
X693.691 Y107.891
X694.943 Y108.419
X695.784 Y108.75
X697.488 Y109.358
X698.188 Y109.595
X700.042 Y110.18
X701.318 Y110.555
X702.595 Y110.901
X703.446 Y111.116
X705.146 Y111.527
X706.25 Y111.739
Y74.256
X705.573 Y74.385
X703.44 Y74.885
X703.023 Y74.987
X700.893 Y75.568
X698.762 Y76.221
X696.942 Y76.833
X695.357 Y77.418
X694.677 Y77.685
X693.674 Y78.111
X692.768 Y78.532
X691.925 Y78.952
X691.165 Y79.374
X690.482 Y79.79
X689.818 Y80.215
X689.2 Y80.626
X687.743 Y81.788
X686.774 Y82.724
Y101.399
G2 X687.013 Y101.52 I0.15 J0.
G1 X688.281 Y100.583
G2 X688.319 Y100.541 I-0.089 J-0.121
G1 X698.354 Y84.424
X698.539 Y84.242
G2 X698.534 Y84.162 I-0.037 J-0.038
G1 Z15. F500.
G2 X698.522 Y84.153 Z14.907 I-0.181 J0.239
X698.485 Y84.132 Z14.824 I-0.169 J0.248
X698.423 Y84.11 Z14.757 I-0.132 J0.269
X698.34 Y84.102 Z14.715 I-0.07 J0.292
X698.25 Y84.12 Z14.7 I0.013 J0.3
G1 X698.231 Y84.127 F1000.
G2 X697.904 Y84.595 I0.173 J0.468
G1 Y101.411
G2 X698.22 Y101.875 I0.499 J0.
G1 X698.278 Y101.898
G2 X698.961 Y101.434 I0.183 J-0.464
G1 Y84.574
G2 X698.289 Y84.106 I-0.499 J0.
G1 X698.25 Y84.12
G3 X697.521 Y84.017 I-0.269 J-0.728
G2 X696.835 Y84.283 I-0.258 J0.352
X696.803 Y84.601 I1.577 J0.318
G1 Y101.431
G2 X697.797 Y102.893 I1.571 J0.
X698.507 Y103.156 I6.666 J-16.896
G3 X699.222 Y103.407 I-28.187 J81.206
G2 X700.062 Y102.815 I0.211 J-0.592
G1 Y83.197
G2 X699.224 Y82.594 I-0.636 J0.
X698.537 Y82.838 I6.686 J19.903
G3 X697.854 Y83.092 I-49.372 J-131.651
G2 X696.835 Y84.283 I0.557 J1.509
G3 X695.733 Y85.603 I-1.771 J-0.358
G2 X694.769 Y87.026 I0.568 J1.423
G1 Y102.734
G2 X695.786 Y104.266 I1.662 J0.
X697.627 Y104.967 I10.984 J-26.08
X699.495 Y105.591 I47.13 J-138.049
G3 X700.365 Y105.896 I-6.651 J20.376
G2 X701.236 Y106.201 I5.314 J-13.771
X702.096 Y105.57 I0.199 J-0.63
G1 Y80.428
G2 X701.251 Y79.803 I-0.654 J0.
X698.492 Y80.695 I28.102 J91.695
X695.783 Y81.728 I12.642 J37.197
X694.769 Y83.26 I0.65 J1.532
G1 Y87.026
G3 X693.74 Y88.57 I-1.672 J0.
G2 X692.711 Y90.114 I0.643 J1.544
G1 Y103.959
G2 X693.72 Y105.593 I1.827 J0.
X696.136 Y106.585 I7.875 J-15.733
G1 X698.878 Y107.48
G3 X701.076 Y108.236 I-22.84 J69.976
G2 X703.298 Y108.917 I7.947 J-21.972
X704.154 Y108.25 I0.169 J-0.667
G1 Y77.747
G2 X703.29 Y77.087 I-0.684 J0.
X698.451 Y78.535 I27.129 J99.452
X693.751 Y80.386 I13.087 J40.119
X692.711 Y82.017 I0.758 J1.631
G1 Y90.114
G3 X691.663 Y91.686 I-1.703 J0.
G2 X690.615 Y93.257 I0.655 J1.572
G1 Y106.291
X692.001 Y107.076
X692.835 Y107.493
X693.691 Y107.891
X694.943 Y108.419
X695.784 Y108.75
X697.488 Y109.358
X698.188 Y109.595
X700.042 Y110.18
X701.318 Y110.555
X702.595 Y110.901
X703.446 Y111.116
X705.146 Y111.527
X706.25 Y111.739
Y74.256
X705.573 Y74.385
X703.44 Y74.885
X703.023 Y74.987
X700.893 Y75.568
X698.762 Y76.221
X696.942 Y76.833
X695.357 Y77.418
X694.677 Y77.685
X693.674 Y78.111
X692.768 Y78.532
X691.925 Y78.952
X691.165 Y79.374
X690.615 Y79.709
Y93.257
G2 X690.845 Y93.384 I0.15 J0.
G1 X694.319 Y91.189
G2 X694.368 Y91.14 I-0.08 J-0.127
G1 X699.916 Y81.956
X699.996 Y81.735
G2 X699.912 Y81.669 I-0.053 J-0.019
G1 Z13. F500.
G2 X699.9 Y81.677 Z12.907 I0.162 J0.252
X699.867 Y81.704 Z12.824 I0.174 J0.244
X699.825 Y81.755 Z12.757 I0.207 J0.217
X699.789 Y81.83 Z12.715 I0.25 J0.166
X699.774 Y81.921 Z12.7 I0.286 J0.091
G1 Y104.132 F1000.
G2 X700.124 Y104.608 I0.499 J0.
G1 X700.263 Y104.652
G2 X700.912 Y104.176 I0.15 J-0.476
G1 Y81.824
G2 X700.254 Y81.351 I-0.499 J0.
G1 X700.115 Y81.398
G2 X699.774 Y81.871 I0.159 J0.473
G1 Y81.921
G3 X699.183 Y82.809 I-0.962 J0.
G2 X698.591 Y83.697 I0.37 J0.888
G1 Y104.32
G2 X699.588 Y105.68 I1.427 J0.
G1 X701.236 Y106.201
G2 X702.096 Y105.57 I0.199 J-0.63
G1 Y80.428
G2 X701.251 Y79.803 I-0.654 J0.
G1 X700.659 Y79.985
G2 X699.411 Y80.386 I14.389 J46.95
X698.591 Y81.526 I0.383 J1.14
G1 Y83.697
G3 X697.561 Y85.241 I-1.672 J0.
G2 X696.532 Y86.785 I0.643 J1.544
G1 Y105.757
G2 X697.507 Y107.14 I1.468 J0.
X699.692 Y107.854 I14.27 J-39.973
X701.9 Y108.494 I48.684 J-163.902
G3 X702.598 Y108.71 I-3.866 J13.689
G2 X703.298 Y108.917 I2.964 J-8.749
X704.154 Y108.25 I0.169 J-0.667
G1 Y77.747
G2 X703.29 Y77.087 I-0.684 J0.
G1 X697.319 Y78.927
G2 X696.532 Y80.056 I0.417 J1.129
G1 Y86.785
G3 X695.484 Y88.356 I-1.703 J0.
G2 X694.437 Y89.928 I0.655 J1.572
G1 Y108.208
X694.942 Y108.418
X695.784 Y108.75
X697.488 Y109.358
X698.188 Y109.595
X700.042 Y110.18
X701.318 Y110.555
X702.595 Y110.901
X703.446 Y111.116
X705.146 Y111.527
X706.25 Y111.739
Y74.256
X705.573 Y74.385
X703.44 Y74.885
X703.023 Y74.987
X700.893 Y75.568
X698.762 Y76.221
X696.942 Y76.833
X695.357 Y77.418
X694.676 Y77.686
X694.437 Y77.785
Y89.928
G2 X694.672 Y90.051 I0.15 J0.
G1 X697.148 Y88.336
G2 X697.195 Y88.284 I-0.085 J-0.123
G1 X702.15 Y79.123
X702.373 Y78.904
G2 X702.371 Y78.81 I-0.045 J-0.046
G1 Z11. F500.
G2 X702.36 Y78.8 Z10.907 I-0.201 J0.223
X702.326 Y78.776 Z10.824 I-0.19 J0.232
X702.265 Y78.748 Z10.757 I-0.155 J0.257
X702.183 Y78.733 Z10.715 I-0.095 J0.285
X702.092 Y78.743 Z10.7 I-0.013 J0.3
G1 X702.005 Y78.767 F1000.
G2 X701.637 Y79.248 I0.131 J0.482
G1 Y106.753
G2 X701.995 Y107.233 I0.499 J0.
G3 X702.118 Y107.269 I-3.787 J12.89
G2 X702.242 Y107.305 I1.228 J-4.038
X702.872 Y106.823 I0.131 J-0.482
G1 Y79.184
G2 X702.241 Y78.702 I-0.499 J0.
G1 X702.092 Y78.743
G3 X701.245 Y78.434 I-0.205 J-0.753
G2 X700.367 Y78.64 I-0.398 J0.276
X700.354 Y78.815 I1.19 J0.175
G1 Y107.077
G2 X701.323 Y108.372 I1.35 J0.
X702.308 Y108.654 I21.129 J-71.926
X703.298 Y108.917 I11.233 J-40.265
X704.154 Y108.25 I0.169 J-0.667
G1 Y77.747
G2 X703.29 Y77.087 I-0.684 J0.
G3 X702.245 Y77.367 I-38.49 J-141.097
G2 X701.204 Y77.665 I7.2 J27.185
X700.367 Y78.64 I0.353 J1.15
G3 X699.26 Y80.045 I-1.776 J-0.261
G2 X698.258 Y81.527 I0.596 J1.482
G1 Y109.614
X700.042 Y110.18
X701.318 Y110.555
X702.595 Y110.901
X703.446 Y111.116
X705.146 Y111.527
X706.25 Y111.739
Y74.256
X705.573 Y74.385
X703.44 Y74.885
X703.023 Y74.987
X700.893 Y75.568
X698.762 Y76.221
X698.258 Y76.39
Y81.527
G2 X698.288 Y81.577 I0.056 J0.
G1 X698.435 Y81.654
G3 X698.464 Y81.692 I-0.026 J0.05
G1 X704.556 Y109.049
X704.603 Y109.353
G2 X704.701 Y109.397 I0.063 J-0.01
G1 Z9. F500.
G2 X704.713 Y109.388 Z8.907 I-0.162 J-0.252
X704.746 Y109.361 Z8.824 I-0.174 J-0.244
X704.788 Y109.311 Z8.757 I-0.207 J-0.217
X704.825 Y109.235 Z8.715 I-0.25 J-0.166
X704.839 Y109.144 Z8.7 I-0.286 J-0.091
G1 Y76.852 F1000.
G2 X704.015 Y76.2 I-0.671 J0.
G1 X704.008 Y76.201
G2 X703.491 Y76.854 I0.153 J0.653
G1 Y109.147
G2 X704.004 Y109.799 I0.671 J0.
G1 X704.01 Y109.8
G2 X704.839 Y109.148 I0.158 J-0.652
G1 Y109.144
G3 X705.544 Y108.086 I1.147 J0.
G2 X706.25 Y107.027 I-0.441 J-1.058
G1 Y74.256
X705.573 Y74.385
X703.44 Y74.885
X703.023 Y74.987
X702.08 Y75.243
Y110.763
X703.02 Y111.012
X705.146 Y111.527
X706.25 Y111.739
Y107.027
G2 X706.236 Y106.936 Z8.715 I-0.3 J0.
X706.2 Y106.861 Z8.757 I-0.286 J0.091
X706.157 Y106.81 Z8.824 I-0.25 J0.166
X706.124 Y106.783 Z8.907 I-0.207 J0.217
X706.112 Y106.775 Z9. I-0.174 J0.244
G0 Z23.7
X706.043 Y111.701
G1 Z11.7 F500.
Z6.7
X706.25 Y111.74 F1000.
Y74.256
X705.902 Y74.322
Y111.674
X706.043 Y111.701
X706.1 Y111.712 Z6.706
X706.155 Y111.722 Z6.722
X706.206 Y111.732 Z6.75
X706.25 Y111.74 Z6.786
G19 G2 Y111.651 Z7. J0.211 K0.214
G0 Z25.7
G17

(PARALLEL4)
M9
G0 X706.599 Y75.862
Z25.7
Z8.592
G1 Z6.831 F1000.
G18 G3 X706.16 Z6.565 I-0.3 K0.
G1 X700.216 Z9.676
G3 X700.203 Z9.683 I0.07 K0.133
G1 X696.009 Z12.444
X695.974 Y75.864 Z12.466
X695.938 Y75.869 Z12.487
X695.903 Y75.878 Z12.507
X695.867 Y75.891 Z12.525
X695.833 Y75.906 Z12.542
X695.799 Y75.926 Z12.556
X695.766 Y75.948 Z12.569
X695.735 Y75.973 Z12.579
X695.705 Y76.001 Z12.588
X695.677 Y76.031 Z12.594
X695.652 Y76.064 Z12.598
X695.628 Y76.098 Z12.599
X695.608 Y76.134 Z12.598
X695.59 Y76.172 Z12.595
X695.575 Y76.21 Z12.589
X695.563 Y76.249 Z12.582
X695.554 Y76.288 Z12.572
X695.434 Y76.935 Z12.39
X695.429 Y76.974 Z12.378
X695.426 Y77.013 Z12.364
X695.427 Y77.051 Z12.348
X695.431 Y77.089 Z12.33
X695.439 Y77.125 Z12.311
X695.449 Y77.159 Z12.29
X695.463 Y77.192 Z12.268
X695.479 Y77.222 Z12.245
X695.499 Y77.25 Z12.221
X695.521 Y77.275 Z12.196
X695.545 Y77.297 Z12.171
X695.572 Y77.316 Z12.146
X695.601 Y77.332 Z12.121
X695.632 Y77.345 Z12.095
X695.664 Y77.354 Z12.071
X695.697 Y77.359 Z12.047
X695.732 Y77.361 Z12.023
G2 X695.744 Z12.016 I0.082 K0.125
G1 X706.16 Z6.565
G2 X706.23 Z6.548 I0.07 K0.133
G17 G3 X706.68 Y77.811 I0. J0.45
G1 Y78.411
G3 X706.23 Y78.861 I-0.45 J0.
G18 G3 X706.16 Z6.565 I0. K0.15
G1 X692.291 Z13.823
G3 X692.278 Z13.83 I0.07 K0.133
G1 X689.878 Z15.41
X689.843 Y78.862 Z15.433
X689.808 Y78.868 Z15.455
X689.773 Y78.877 Z15.475
X689.739 Y78.89 Z15.495
X689.706 Y78.907 Z15.513
X689.673 Y78.927 Z15.53
X689.642 Y78.95 Z15.545
X689.613 Y78.976 Z15.558
X689.585 Y79.005 Z15.57
X689.56 Y79.036 Z15.58
X689.536 Y79.07 Z15.587
X689.516 Y79.105 Z15.592
X689.498 Y79.143 Z15.596
X689.483 Y79.182 Z15.597
X689.47 Y79.221 Z15.596
X689.461 Y79.262 Z15.592
X689.455 Y79.302 Z15.587
X689.39 Y79.918 Z15.488
X689.388 Y79.959 Z15.48
Y79.999 Z15.471
X689.392 Y80.039 Z15.459
X689.399 Y80.078 Z15.446
X689.409 Y80.115 Z15.43
X689.422 Y80.151 Z15.413
X689.438 Y80.184 Z15.395
X689.457 Y80.216 Z15.375
X689.478 Y80.245 Z15.355
X689.502 Y80.271 Z15.333
X689.529 Y80.294 Z15.31
X689.557 Y80.314 Z15.287
X689.587 Y80.33 Z15.264
X689.618 Y80.343 Z15.24
X689.651 Y80.352 Z15.216
X689.685 Y80.358 Z15.193
X689.719 Y80.36 Z15.169
G2 X689.732 Z15.162 I0.082 K0.125
G1 X706.16 Z6.565
G2 X706.23 Z6.548 I0.07 K0.133
G17 G3 X706.68 Y80.81 I0. J0.45
G1 Y81.409
G3 X706.23 Y81.859 I-0.45 J0.
G18 G3 X706.16 Z6.565 I0. K0.15
G1 X687.807 Z16.17
G3 X687.794 Z16.177 I0.07 K0.133
G1 X686.355 Z17.124
X686.32 Y81.861 Z17.147
X686.286 Y81.867 Z17.169
X686.251 Y81.876 Z17.19
X686.217 Y81.89 Z17.211
X686.185 Y81.906 Z17.23
X686.153 Y81.926 Z17.248
X686.123 Y81.95 Z17.265
X686.094 Y81.976 Z17.28
X686.068 Y82.005 Z17.293
X686.044 Y82.037 Z17.305
X686.022 Y82.071 Z17.314
X686.003 Y82.107 Z17.322
X685.986 Y82.145 Z17.327
X685.973 Y82.184 Z17.331
X685.962 Y82.224 Z17.332
X685.955 Y82.265
X685.951 Y82.306 Z17.329
X685.912 Y82.912 Z17.27
X685.911 Y82.953 Z17.265
X685.914 Y82.994 Z17.258
X685.919 Y83.034 Z17.249
X685.928 Y83.073 Z17.238
X685.939 Y83.111 Z17.225
X685.954 Y83.147 Z17.211
X685.971 Y83.181 Z17.194
X685.992 Y83.213 Z17.177
X686.014 Y83.242 Z17.158
X686.039 Y83.268 Z17.138
X686.066 Y83.292 Z17.117
X686.095 Y83.312 Z17.095
X686.126 Y83.329 Z17.072
X686.158 Y83.342 Z17.049
X686.191 Y83.351 Z17.026
X686.225 Y83.357 Z17.003
X686.26 Y83.359 Z16.98
G2 X686.273 Z16.972 I0.082 K0.125
G1 X706.16 Z6.565
G2 X706.23 Z6.548 I0.07 K0.133
G17 G3 X706.68 Y83.809 I0. J0.45
G1 Y84.408
G3 X706.23 Y84.858 I-0.45 J0.
G18 G3 X706.16 Z6.565 I0. K0.15
G1 X685.045 Z17.615
G3 X685.032 Z17.622 I0.07 K0.133
G1 X684.14 Z18.21
X684.106 Y84.86 Z18.232
X684.071 Y84.866 Z18.255
X684.037 Y84.875 Z18.276
X684.003 Y84.888 Z18.297
X683.971 Y84.905 Z18.317
X683.94 Y84.925 Z18.336
X683.91 Y84.949 Z18.353
X683.882 Y84.975 Z18.369
X683.857 Y85.005 Z18.384
X683.833 Y85.037 Z18.396
X683.812 Y85.071 Z18.407
X683.794 Y85.107 Z18.416
X683.779 Y85.145 Z18.423
X683.766 Y85.184 Z18.428
X683.756 Y85.225 Z18.431
X683.75 Y85.266 Z18.432
X683.747 Y85.307 Z18.43
X683.723 Y85.909 Z18.394
Y85.95 Z18.391
X683.726 Y85.991 Z18.385
X683.733 Y86.032 Z18.378
X683.742 Y86.071 Z18.368
X683.755 Y86.109 Z18.356
X683.77 Y86.145 Z18.343
X683.788 Y86.179 Z18.328
X683.809 Y86.211 Z18.312
X683.833 Y86.24 Z18.294
X683.858 Y86.267 Z18.275
X683.886 Y86.29 Z18.254
X683.916 Y86.31 Z18.233
X683.947 Y86.327 Z18.211
X683.979 Y86.34 Z18.189
X684.013 Y86.35 Z18.166
X684.047 Y86.356 Z18.143
X684.081 Y86.358 Z18.12
G2 X684.094 Z18.112 I0.082 K0.125
G1 X706.16 Z6.565
G2 X706.23 Z6.548 I0.07 K0.133
G17 G3 X706.68 Y86.808 I0. J0.45
G1 Y87.407
G3 X706.23 Y87.857 I-0.45 J0.
G18 G3 X706.16 Z6.565 I0. K0.15
G1 X683.377 Z18.488
X682.89 Z18.743
X682.853 Y87.859 Z18.762
X682.817 Y87.865 Z18.781
X682.781 Y87.874 Z18.8
X682.746 Y87.887 Z18.818
X682.712 Y87.904 Z18.836
X682.68 Y87.924 Z18.853
X682.65 Y87.948 Z18.869
X682.621 Y87.974 Z18.883
X682.595 Y88.004 Z18.897
X682.572 Y88.036 Z18.909
X682.551 Y88.07 Z18.92
X682.533 Y88.106 Z18.93
X682.518 Y88.144 Z18.937
X682.506 Y88.184 Z18.943
X682.498 Y88.224 Z18.948
X682.493 Y88.265 Z18.951
X682.491 Y88.307
Y88.906
X682.493 Y88.948
X682.498 Y88.989 Z18.948
X682.506 Y89.029 Z18.943
X682.518 Y89.069 Z18.937
X682.533 Y89.107 Z18.93
X682.551 Y89.143 Z18.92
X682.572 Y89.178 Z18.909
X682.595 Y89.21 Z18.897
X682.621 Y89.239 Z18.883
X682.65 Y89.265 Z18.869
X682.68 Y89.289 Z18.853
X682.712 Y89.309 Z18.836
X682.746 Y89.326 Z18.818
X682.781 Y89.339 Z18.8
X682.817 Y89.349 Z18.781
X682.853 Y89.354 Z18.762
X682.89 Y89.356 Z18.743
X706.16 Z6.565
G2 X706.23 Z6.548 I0.07 K0.133
G17 G3 X706.68 Y89.806 I0. J0.45
G1 Y90.406
G3 X706.23 Y90.856 I-0.45 J0.
G18 G3 X706.16 Z6.565 I0. K0.15
G1 X682.736 Z18.821
X682.73
G3 X682.664 Z18.837 I0. K0.15
G2 X682.598 Z18.852 I-0.066 K-0.135
G17 G2 X682.148 Y91.306 I0. J0.45
G1 Y91.905
G2 X682.598 Y92.355 I0.45 J0.
G18 G3 X682.664 Z18.837 I0. K-0.15
G2 X682.73 Z18.821 I0.066 K0.135
G1 X682.736
X706.16 Z6.565
G2 X706.23 Z6.548 I0.07 K0.133
G17 G3 X706.68 Y92.805 I0. J0.45
G1 Y93.405
G3 X706.23 Y93.855 I-0.45 J0.
G18 G3 X706.16 Z6.565 I0. K0.15
G1 X682.736 Z18.821
X682.73
G3 X682.664 Z18.837 I0. K0.15
G2 X682.598 Z18.852 I-0.066 K-0.135
G17 G2 X682.148 Y94.305 I0. J0.45
G1 Y94.904
G2 X682.598 Y95.354 I0.45 J0.
G18 G3 X682.664 Z18.837 I0. K-0.15
G2 X682.73 Z18.821 I0.066 K0.135
G1 X682.736
X706.16 Z6.565
G2 X706.23 Z6.548 I0.07 K0.133
G17 G3 X706.68 Y95.804 I0. J0.45
G1 Y96.403
G3 X706.23 Y96.853 I-0.45 J0.
G18 G3 X706.16 Z6.565 I0. K0.15
G1 X682.943 Z18.715
G3 X682.93 Z18.723 I0.07 K0.133
G1 X682.896 Y96.855 Z18.745
X682.861 Y96.861 Z18.768
X682.828 Y96.87 Z18.791
X682.795 Y96.884 Z18.813
X682.764 Y96.9 Z18.834
X682.734 Y96.921 Z18.855
X682.706 Y96.944 Z18.875
X682.679 Y96.971 Z18.893
X682.656 Y97. Z18.91
X682.634 Y97.032 Z18.926
X682.615 Y97.066 Z18.94
X682.599 Y97.103 Z18.952
X682.586 Y97.141 Z18.963
X682.576 Y97.18 Z18.971
X682.569 Y97.22 Z18.978
X682.565 Y97.261 Z18.982
X682.564 Y97.303 Z18.985
X682.577 Y97.903 Z19.004
X682.579 Y97.945
X682.585 Y97.986 Z19.002
X682.594 Y98.026 Z18.999
X682.606 Y98.065 Z18.993
X682.62 Y98.103 Z18.985
X682.638 Y98.14 Z18.975
X682.658 Y98.174 Z18.963
X682.681 Y98.206 Z18.949
X682.706 Y98.235 Z18.934
X682.734 Y98.262 Z18.917
X682.763 Y98.285 Z18.899
X682.794 Y98.306 Z18.88
X682.826 Y98.322 Z18.86
X682.859 Y98.336 Z18.838
X682.893 Y98.345 Z18.816
X682.927 Y98.351 Z18.794
X682.962 Y98.353 Z18.771
X683.447 Z18.452
G2 X683.46 Z18.445 I0.082 K0.125
G1 X706.16 Z6.565
G2 X706.23 Z6.548 I0.07 K0.133
G17 G3 X706.68 Y98.803 I0. J0.45
G1 Y99.402
G3 X706.23 Y99.852 I-0.45 J0.
G18 G3 X706.16 Z6.565 I0. K0.15
G1 X684.214 Z18.05
G3 X684.201 Z18.058 I0.07 K0.133
G1 X684.166 Y99.854 Z18.08
X684.132 Y99.86 Z18.103
X684.099 Y99.869 Z18.126
X684.066 Y99.882 Z18.149
X684.035 Y99.899 Z18.171
X684.006 Y99.919 Z18.192
X683.978 Y99.943 Z18.212
X683.953 Y99.969 Z18.231
X683.929 Y99.999 Z18.249
X683.908 Y100.03 Z18.266
X683.89 Y100.065 Z18.281
X683.875 Y100.101 Z18.294
X683.862 Y100.139 Z18.306
X683.853 Y100.178 Z18.316
X683.846 Y100.218 Z18.324
X683.843 Y100.259 Z18.329
Y100.301 Z18.333
X683.868 Y100.903 Z18.37
X683.871 Y100.944 Z18.372
X683.878 Y100.985 Z18.371
X683.887 Y101.026 Z18.369
X683.9 Y101.065 Z18.364
X683.916 Y101.103 Z18.357
X683.934 Y101.139 Z18.348
X683.955 Y101.173 Z18.337
X683.979 Y101.205 Z18.325
X684.004 Y101.234 Z18.31
X684.032 Y101.261 Z18.294
X684.062 Y101.284 Z18.277
X684.093 Y101.304 Z18.258
X684.125 Y101.321 Z18.238
X684.159 Y101.334 Z18.217
X684.193 Y101.344 Z18.196
X684.228 Y101.35 Z18.174
X684.262 Y101.352 Z18.151
X685.192 Z17.539
G2 X685.205 Z17.531 I0.083 K0.125
G1 X706.16 Z6.565
G2 X706.23 Z6.548 I0.07 K0.133
G17 G3 X706.68 Y101.802 I0. J0.45
G1 Y102.401
G3 X706.23 Y102.851 I-0.45 J0.
G18 G3 X706.16 Z6.565 I0. K0.15
G1 X686.458 Z16.875
X686.421 Y102.853 Z16.895
X686.385 Y102.859 Z16.914
X686.349 Y102.868 Z16.932
X686.314 Y102.881 Z16.951
X686.28 Y102.898 Z16.968
X686.248 Y102.918 Z16.985
X686.218 Y102.942 Z17.001
X686.19 Y102.968 Z17.016
X686.164 Y102.998 Z17.03
X686.14 Y103.03 Z17.042
X686.119 Y103.064 Z17.053
X686.101 Y103.1 Z17.062
X686.086 Y103.138 Z17.07
X686.075 Y103.178 Z17.076
X686.066 Y103.218 Z17.08
X686.061 Y103.259 Z17.083
X686.06 Y103.301 Z17.084
Y103.9
X686.061 Y103.942 Z17.083
X686.066 Y103.983 Z17.08
X686.075 Y104.023 Z17.076
X686.086 Y104.063 Z17.07
X686.101 Y104.101 Z17.062
X686.119 Y104.137 Z17.053
X686.14 Y104.172 Z17.042
X686.164 Y104.203 Z17.03
X686.19 Y104.233 Z17.016
X686.218 Y104.259 Z17.001
X686.248 Y104.283 Z16.985
X686.28 Y104.303 Z16.968
X686.314 Y104.32 Z16.951
X686.349 Y104.333 Z16.932
X686.385 Y104.343 Z16.914
X686.421 Y104.348 Z16.895
X686.458 Y104.35 Z16.875
X688.048 Z16.044
X706.16 Z6.565
G2 X706.23 Z6.548 I0.07 K0.133
G17 G3 X706.68 Y104.8 I0. J0.45
G1 Y105.4
G3 X706.23 Y105.85 I-0.45 J0.
G18 G3 X706.16 Z6.565 I0. K0.15
G1 X690.052 Z14.994
G3 X690.039 Z15.002 I0.07 K0.133
G1 X690.005 Y105.852 Z15.025
X689.971 Y105.857 Z15.049
X689.938 Y105.867 Z15.073
X689.907 Y105.88 Z15.096
X689.877 Y105.896 Z15.12
X689.849 Y105.916 Z15.143
X689.823 Y105.939 Z15.166
X689.799 Y105.965 Z15.188
X689.778 Y105.994 Z15.209
X689.759 Y106.025 Z15.229
X689.743 Y106.059 Z15.247
X689.73 Y106.094 Z15.264
X689.72 Y106.132 Z15.28
X689.713 Y106.17 Z15.294
X689.71 Y106.21 Z15.305
X689.709 Y106.25 Z15.315
X689.712 Y106.291 Z15.323
X689.78 Y106.908 Z15.426
X689.786 Y106.949 Z15.432
X689.795 Y106.989 Z15.435
X689.808 Y107.029 Z15.437
X689.823 Y107.067 Z15.436
X689.841 Y107.105 Z15.433
X689.862 Y107.14 Z15.428
X689.885 Y107.174 Z15.421
X689.911 Y107.205 Z15.411
X689.938 Y107.234 Z15.4
X689.968 Y107.26 Z15.387
X689.999 Y107.283 Z15.372
X690.032 Y107.303 Z15.355
X690.065 Y107.319 Z15.337
X690.1 Y107.332 Z15.317
X690.134 Y107.342 Z15.297
X690.169 Y107.347 Z15.275
X690.204 Y107.349 Z15.252
X692.7 Z13.61
G2 X692.713 Z13.602 I0.083 K0.125
G1 X706.16 Z6.565
G2 X706.23 Z6.548 I0.07 K0.133
G17 G3 X706.68 Y107.799 I0. J0.45
G1 Y108.398
G3 X706.23 Y108.849 I-0.45 J0.
G18 G3 X706.16 Z6.565 I0. K0.15
G1 X696.307 Z11.721
G3 X696.294 Z11.729 I0.07 K0.133
G1 X696.26 Y108.85 Z11.752
X696.226 Y108.856 Z11.776
X696.194 Y108.865 Z11.801
X696.164 Y108.877 Z11.827
X696.135 Y108.893 Z11.852
X696.108 Y108.912 Z11.878
X696.084 Y108.934 Z11.903
X696.062 Y108.959 Z11.928
X696.042 Y108.987 Z11.952
X696.026 Y109.017 Z11.975
X696.013 Y109.05 Z11.998
X696.002 Y109.084 Z12.019
X695.995 Y109.12 Z12.038
X695.991 Y109.157 Z12.056
X695.99 Y109.196 Z12.073
X695.993 Y109.234 Z12.087
X695.999 Y109.274 Z12.099
X696.123 Y109.923 Z12.287
X696.132 Y109.962 Z12.298
X696.144 Y110.001 Z12.306
X696.159 Y110.039 Z12.312
X696.177 Y110.076 Z12.315
X696.198 Y110.112 Z12.316
X696.222 Y110.147 Z12.315
X696.247 Y110.179 Z12.311
X696.275 Y110.209 Z12.306
X696.305 Y110.237 Z12.298
X696.337 Y110.262 Z12.287
X696.37 Y110.284 Z12.275
X696.404 Y110.303 Z12.26
X696.438 Y110.319 Z12.244
X696.474 Y110.332 Z12.226
X696.509 Y110.341 Z12.206
X696.545 Y110.346 Z12.185
X696.58 Y110.348 Z12.163
X700.906 Z9.315
G2 X700.919 Z9.308 I0.083 K0.125
G1 X706.16 Z6.565
G2 X706.599 Z6.831 I0.139 K0.266
G0 Z25.7
G17

M9
M30
